{
"autoplayBgm":true,"autoplayBgs":true,"battleback1Name":"DirtField","battleback2Name":"Sky","bgm":{"name":"~Relax01","pan":0,"pitch":150,"volume":100},"bgs":{"name":"Rain","pan":0,"pitch":50,"volume":100},"disableDashing":false,"displayName":"Baijra-Berg","encounterList":[],"encounterStep":30,"height":13,"note":"","parallaxLoopX":false,"parallaxLoopY":false,"parallaxName":"BlueSky","parallaxShow":true,"parallaxSx":0,"parallaxSy":0,"scrollType":0,"specifyBattleback":true,"tilesetId":7,"width":17,
"data":[0,0,0,0,2896,1633,2064,2048,2048,2048,2048,2048,2048,2052,2086,2896,1637,0,0,2898,2884,2890,1633,2064,2048,2048,2048,2052,2076,2076,2086,1633,2896,1637,0,0,2880,2868,2902,1633,2064,2048,2052,2076,2086,1633,2899,2897,2897,2903,1637,0,2899,2893,2889,1633,2082,2049,2048,2072,1633,2899,2897,2903,1653,1654,1655,1637,0,2908,1633,2908,1633,2088,2076,2076,2086,1633,2908,1653,1655,7506,7492,7508,1637,7492,7492,7492,7492,7492,7492,7492,7492,7492,7492,7492,7492,7492,7473,7472,7474,7492,7472,7472,7472,7472,7472,7472,7472,7472,7472,7472,7472,7472,7472,7472,7472,7472,7472,7500,7500,7500,7500,7500,7500,7500,7500,7500,7480,7472,7472,7472,7472,7472,7472,7472,1655,1655,1655,1655,1655,1655,1655,1655,1655,7512,7500,7480,7472,7476,7500,7500,7480,1655,1655,1655,1655,1655,1655,2481,2482,1655,1655,1655,7512,7500,7510,1655,1655,7488,1655,1655,1655,1655,1655,1655,2481,2482,1655,1655,1655,1655,1655,1655,1655,1655,7512,1646,1646,1638,1639,1655,1655,2481,2578,1655,1655,1655,1655,1655,1655,1655,1655,1655,1655,1655,1645,1647,1655,1655,2481,2482,1655,1655,1655,1655,1655,1544,1655,1655,1655,0,0,0,0,0,0,2224,2188,0,0,2188,0,0,0,2236,0,3168,0,0,0,0,3198,0,2236,0,2187,2189,0,2235,2225,2237,0,0,3168,0,0,0,0,0,0,0,2186,0,0,2238,0,3195,3197,0,0,3192,0,0,0,0,0,2234,0,2188,0,0,0,0,0,0,0,0,0,0,0,0,3198,0,2233,2237,0,2142,0,0,0,0,0,3186,3188,0,0,0,3198,0,0,0,0,3194,0,0,0,0,0,3195,3181,3190,0,0,0,0,0,0,0,0,3184,0,0,0,0,0,0,0,0,0,0,0,0,0,0,0,0,3196,0,0,3198,0,0,0,3198,0,0,0,0,0,0,0,0,0,0,0,0,0,3194,0,0,0,0,3186,0,0,0,0,0,0,0,0,0,0,0,3193,3197,0,0,0,3192,0,0,0,0,0,0,0,0,0,0,0,0,0,0,0,0,0,0,0,3438,3198,0,0,0,0,0,0,0,0,0,0,0,0,0,0,0,3194,0,0,0,0,0,0,0,0,0,0,0,0,0,0,0,0,0,0,0,0,0,0,0,0,0,0,0,0,0,0,0,0,0,0,0,0,0,0,0,0,0,0,0,0,0,0,0,0,0,0,0,0,0,0,0,0,0,0,0,0,0,0,0,0,0,0,0,0,0,0,0,0,0,0,0,0,0,0,0,0,0,0,0,0,0,0,0,0,0,0,0,0,0,0,0,0,0,0,0,0,0,0,0,0,0,0,0,0,0,0,0,0,0,0,0,0,0,0,0,0,0,0,0,0,0,0,0,0,0,0,0,0,0,0,0,0,0,0,0,0,0,0,0,0,0,0,0,0,0,0,0,0,0,0,0,0,0,0,0,0,0,0,0,0,0,0,0,0,0,0,0,0,0,0,0,0,0,0,0,0,0,0,0,0,0,0,0,0,0,0,0,0,0,0,0,0,0,0,0,0,0,0,0,0,0,0,0,0,0,0,0,0,0,0,0,0,0,0,0,0,0,0,0,0,0,0,0,0,0,0,0,0,0,0,0,0,0,0,0,0,0,0,0,0,0,0,0,190,0,0,182,0,0,0,0,182,0,182,0,190,0,0,0,0,0,0,0,0,0,0,0,0,182,0,0,0,0,190,0,0,0,0,0,182,182,0,0,182,0,0,182,0,190,0,0,182,0,182,0,195,0,0,0,0,0,182,0,0,0,0,0,0,182,0,195,0,0,0,0,0,0,0,0,0,205,0,0,0,196,0,0,0,0,0,0,0,0,0,0,195,0,0,0,197,0,204,0,196,0,0,0,0,0,0,0,204,195,182,103,0,205,0,0,0,0,0,0,0,0,196,0,0,0,195,195,182,0,0,182,0,0,0,0,0,0,0,0,0,0,0,0,195,182,195,206,206,0,182,0,0,0,0,0,0,0,203,203,203,203,195,195,0,0,0,0,0,0,0,0,0,0,0,182,0,0,0,195,0,0,0,0,0,0,0,0,195,0,0,0,195,195,0,182,0,0,0,0,0,0,0,0,0,0,537,0,0,0,0,0,0,0,0,0,0,0,0,0,0,0,0,0,0,0,0,0,0,0,0,0,0,0,0,0,0,0,0,0,0,0,0,0,0,0,0,0,0,0,0,0,0,0,0,0,0,0,0,0,0,0,0,0,0,0,0,0,0,0,0,0,0,0,0,0,0,0,0,0,0,0,0,0,0,0,0,0,0,0,0,0,0,0,0,0,0,0,0,0,0,0,0,0,0,0,0,0,0,0,0,0,0,0,0,0,0,0,0,0,0,0,0,0,0,0,0,0,0,0,0,0,0,0,0,0,0,0,0,0,0,0,0,0,0,0,0,0,0,0,0,0,0,0,0,0,0,0,0,0,0,0,0,0,0,0,0,0,0,0,0,0,0,0,0,0,5,0,0,0,0,0,0,0,0,0,0,0,0,0,0,0,0,0,0,0,0,0,0,0,0,0,0,0,0,0,0,0,0,0,0,0,0,0,0,0,0,0,0,0,0,0,0,0,0,0,0,0,0,0,0,0,0,0,0,0,0,0,0,0,0,0,0,0,0,0,0,0,0,0,0,0,0,0,0,0,0,0,0,0,0,0,0,0,0,0,0,0,0,0,0,0,0,0,0,0,0,0,0,0,0,0,0,0,0,0,0,0,0,0,0,0,0,0,0,0,0,0,0,0,0,0,0,0,0,0,0,0,0,0,0,0,0,0,0,0,0,0,0,0,0,0,0,0,0,0,0,0,0,0,0,0,0,0,0,0,0,0,0,0,0,0,0,0,0,0,0,0,0,0,0,0,0,0,0,0,0,0,0,0,0,0,0,0,0,0,0,0,0,0,0,0,0,0,0,0,0,0,0,0,0,0,0,0,0,0,0,0,0,0,0,0,0,0,0,0,0,0,0,0,0,0,0,0,0,0,0,0,0,0,0,0,0,0,0,0,0,0,0,0,0,0,0,0,0,0,0,0,0,0,0,0,0,0,0,0,0,0,0,0,0,0,0,0,0,0,0,0,0,0,0],
"events":[
null,
{"id":1,"name":"EV001","note":"","pages":[{"conditions":{"actorId":1,"actorValid":false,"itemId":1,"itemValid":false,"selfSwitchCh":"A","selfSwitchValid":false,"switch1Id":1,"switch1Valid":false,"switch2Id":1,"switch2Valid":false,"variableId":1,"variableValid":false,"variableValue":0},"directionFix":false,"image":{"tileId":0,"characterName":"Monster2","direction":2,"pattern":0,"characterIndex":0},"moveFrequency":1,"moveRoute":{"list":[{"code":0,"indent":null,"parameters":[]}],"repeat":true,"skippable":false,"wait":false},"moveSpeed":1,"moveType":0,"priorityType":1,"stepAnime":true,"through":false,"trigger":2,"walkAnime":false,"list":[{"code":301,"indent":0,"parameters":[0,50,true,false]},{"code":601,"indent":0,"parameters":[]},{"code":123,"indent":1,"parameters":["A",0]},{"code":0,"indent":1,"parameters":[]},{"code":602,"indent":0,"parameters":[]},{"code":0,"indent":1,"parameters":[]},{"code":604,"indent":0,"parameters":[]},{"code":0,"indent":0,"parameters":[]}]},{"conditions":{"actorId":1,"actorValid":false,"itemId":1,"itemValid":false,"selfSwitchCh":"A","selfSwitchValid":true,"switch1Id":1,"switch1Valid":false,"switch2Id":1,"switch2Valid":false,"variableId":1,"variableValid":false,"variableValue":0},"directionFix":false,"image":{"tileId":0,"characterName":"","direction":2,"pattern":0,"characterIndex":0},"moveFrequency":3,"moveRoute":{"list":[{"code":0,"indent":null,"parameters":[]}],"repeat":true,"skippable":false,"wait":false},"moveSpeed":3,"moveType":0,"priorityType":0,"stepAnime":false,"through":false,"trigger":0,"walkAnime":true,"list":[{"code":0,"indent":0,"parameters":[]}]}],"x":8,"y":7},
{"id":2,"name":"EV002","note":"","pages":[{"conditions":{"actorId":1,"actorValid":false,"itemId":1,"itemValid":false,"selfSwitchCh":"A","selfSwitchValid":false,"switch1Id":1,"switch1Valid":false,"switch2Id":1,"switch2Valid":false,"variableId":1,"variableValid":false,"variableValue":0},"directionFix":false,"image":{"tileId":0,"characterName":"","direction":2,"pattern":0,"characterIndex":0},"moveFrequency":3,"moveRoute":{"list":[{"code":0,"indent":null,"parameters":[]}],"repeat":true,"skippable":false,"wait":false},"moveSpeed":3,"moveType":0,"priorityType":0,"stepAnime":false,"through":false,"trigger":2,"walkAnime":true,"list":[{"code":201,"indent":0,"parameters":[0,14,23,1,0,0]},{"code":0,"indent":0,"parameters":[]}]}],"x":0,"y":6},
{"id":3,"name":"EV003","note":"","pages":[{"conditions":{"actorId":1,"actorValid":false,"itemId":1,"itemValid":false,"selfSwitchCh":"A","selfSwitchValid":false,"switch1Id":1,"switch1Valid":false,"switch2Id":1,"switch2Valid":false,"variableId":1,"variableValid":false,"variableValue":0},"directionFix":false,"image":{"tileId":0,"characterName":"","direction":2,"pattern":0,"characterIndex":0},"moveFrequency":3,"moveRoute":{"list":[{"code":0,"indent":null,"parameters":[]}],"repeat":true,"skippable":false,"wait":false},"moveSpeed":3,"moveType":0,"priorityType":0,"stepAnime":false,"through":false,"trigger":2,"walkAnime":true,"list":[{"code":201,"indent":0,"parameters":[0,14,23,0,0,0]},{"code":0,"indent":0,"parameters":[]}]}],"x":0,"y":5},
{"id":4,"name":"EV004","note":"","pages":[{"conditions":{"actorId":1,"actorValid":false,"itemId":1,"itemValid":false,"selfSwitchCh":"A","selfSwitchValid":false,"switch1Id":1,"switch1Valid":false,"switch2Id":1,"switch2Valid":false,"variableId":1,"variableValid":false,"variableValue":0},"directionFix":false,"image":{"tileId":0,"characterName":"","direction":2,"pattern":0,"characterIndex":0},"moveFrequency":3,"moveRoute":{"list":[{"code":0,"indent":null,"parameters":[]}],"repeat":true,"skippable":false,"wait":false},"moveSpeed":3,"moveType":0,"priorityType":0,"stepAnime":false,"through":false,"trigger":2,"walkAnime":true,"list":[{"code":221,"indent":0,"parameters":[]},{"code":250,"indent":0,"parameters":[{"name":"Breath","pan":0,"pitch":50,"volume":100}]},{"code":230,"indent":0,"parameters":[30]},{"code":250,"indent":0,"parameters":[{"name":"Earth9","pan":0,"pitch":50,"volume":100}]},{"code":230,"indent":0,"parameters":[10]},{"code":250,"indent":0,"parameters":[{"name":"Earth9","pan":0,"pitch":50,"volume":100}]},{"code":230,"indent":0,"parameters":[10]},{"code":121,"indent":0,"parameters":[120,120,0]},{"code":250,"indent":0,"parameters":[{"name":"Earth9","pan":0,"pitch":50,"volume":100}]},{"code":246,"indent":0,"parameters":[1]},{"code":242,"indent":0,"parameters":[4]},{"code":230,"indent":0,"parameters":[150]},{"code":352,"indent":0,"parameters":[]},{"code":201,"indent":0,"parameters":[0,37,17,6,2,0]},{"code":230,"indent":0,"parameters":[25]},{"code":222,"indent":0,"parameters":[]},{"code":101,"indent":0,"parameters":["Elsa",5,0,2]},{"code":401,"indent":0,"parameters":["Oh mist!"]},{"code":401,"indent":0,"parameters":["Was war denn das nun wieder?"]},{"code":101,"indent":0,"parameters":["Kazuko",6,0,2]},{"code":401,"indent":0,"parameters":["Wir sind runter gefallen..."]},{"code":230,"indent":0,"parameters":[20]},{"code":101,"indent":0,"parameters":["Elsa",5,0,2]},{"code":401,"indent":0,"parameters":["...."]},{"code":230,"indent":0,"parameters":[20]},{"code":101,"indent":0,"parameters":["Elsa",5,0,2]},{"code":401,"indent":0,"parameters":["Das seh ich selbst.."]},{"code":230,"indent":0,"parameters":[20]},{"code":121,"indent":0,"parameters":[92,92,0]},{"code":0,"indent":0,"parameters":[]}]},{"conditions":{"actorId":1,"actorValid":false,"itemId":1,"itemValid":false,"selfSwitchCh":"A","selfSwitchValid":false,"switch1Id":92,"switch1Valid":true,"switch2Id":1,"switch2Valid":false,"variableId":1,"variableValid":false,"variableValue":0},"directionFix":false,"image":{"characterIndex":0,"characterName":"","direction":2,"pattern":0,"tileId":0},"list":[{"code":0,"indent":0,"parameters":[]}],"moveFrequency":3,"moveRoute":{"list":[{"code":0,"parameters":[]}],"repeat":true,"skippable":false,"wait":false},"moveSpeed":3,"moveType":0,"priorityType":0,"stepAnime":false,"through":false,"trigger":0,"walkAnime":true}],"x":9,"y":5},
{"id":5,"name":"EV005","note":"","pages":[{"conditions":{"actorId":1,"actorValid":false,"itemId":1,"itemValid":false,"selfSwitchCh":"A","selfSwitchValid":false,"switch1Id":1,"switch1Valid":false,"switch2Id":1,"switch2Valid":false,"variableId":1,"variableValid":false,"variableValue":0},"directionFix":false,"image":{"tileId":103,"characterName":"","characterIndex":0,"direction":2,"pattern":0},"moveFrequency":3,"moveRoute":{"list":[{"code":0,"indent":null,"parameters":[]}],"repeat":true,"skippable":false,"wait":false},"moveSpeed":3,"moveType":0,"priorityType":1,"stepAnime":false,"through":false,"trigger":0,"walkAnime":true,"list":[{"code":101,"indent":0,"parameters":["Gryen",2,0,2]},{"code":401,"indent":0,"parameters":["Hmm..."]},{"code":101,"indent":0,"parameters":["Kazuko",2,0,2]},{"code":401,"indent":0,"parameters":["Wir brauchen irgendwas,"]},{"code":401,"indent":0,"parameters":["um es zu zerstören.."]},{"code":101,"indent":0,"parameters":["Elsa2",2,0,2]},{"code":401,"indent":0,"parameters":["Kein Problem~"]},{"code":401,"indent":0,"parameters":["Haha.."]},{"code":250,"indent":0,"parameters":[{"name":"Sword4","pan":0,"pitch":90,"volume":100}]},{"code":230,"indent":0,"parameters":[60]},{"code":101,"indent":0,"parameters":["Elsa2",4,0,2]},{"code":401,"indent":0,"parameters":["Haha.."]},{"code":250,"indent":0,"parameters":[{"name":"Reflection","pan":0,"pitch":150,"volume":100}]},{"code":101,"indent":0,"parameters":["Elsa2",5,0,2]},{"code":401,"indent":0,"parameters":["AAAHAHA!!!"]},{"code":230,"indent":0,"parameters":[120]},{"code":101,"indent":0,"parameters":["Elsa",6,0,2]},{"code":401,"indent":0,"parameters":["Auuuwauwauwauuu.."]},{"code":101,"indent":0,"parameters":["Elsa2",5,0,2]},{"code":401,"indent":0,"parameters":["MISTDING!!"]},{"code":250,"indent":0,"parameters":[{"name":"Reflection","pan":0,"pitch":150,"volume":100}]},{"code":101,"indent":0,"parameters":["Elsa",6,0,2]},{"code":401,"indent":0,"parameters":["AAAAAH!!"]},{"code":101,"indent":0,"parameters":["Hale2",5,0,2]},{"code":401,"indent":0,"parameters":["..."]},{"code":101,"indent":0,"parameters":["Kazuko",2,0,2]},{"code":401,"indent":0,"parameters":["Können wir jetzt?..."]},{"code":101,"indent":0,"parameters":["Elsa2",7,0,2]},{"code":401,"indent":0,"parameters":["Ja.."]},{"code":121,"indent":0,"parameters":[91,91,0]},{"code":0,"indent":0,"parameters":[]}]},{"conditions":{"actorId":1,"actorValid":false,"itemId":1,"itemValid":false,"selfSwitchCh":"A","selfSwitchValid":false,"switch1Id":88,"switch1Valid":true,"switch2Id":1,"switch2Valid":false,"variableId":1,"variableValid":false,"variableValue":0},"directionFix":false,"image":{"tileId":103,"characterName":"","direction":2,"pattern":0,"characterIndex":0},"moveFrequency":3,"moveRoute":{"list":[{"code":0,"indent":null,"parameters":[]}],"repeat":true,"skippable":false,"wait":false},"moveSpeed":3,"moveType":0,"priorityType":1,"stepAnime":false,"through":false,"trigger":0,"walkAnime":true,"list":[{"code":101,"indent":0,"parameters":["Kazuko",2,0,2]},{"code":401,"indent":0,"parameters":["Schlag auf den Stein!"]},{"code":101,"indent":0,"parameters":["Gryen",2,0,2]},{"code":401,"indent":0,"parameters":[""]},{"code":101,"indent":0,"parameters":["Kazuko",5,0,2]},{"code":401,"indent":0,"parameters":["Mach schon Mooskopf!"]},{"code":101,"indent":0,"parameters":["Gryen",1,0,2]},{"code":401,"indent":0,"parameters":["Wer ich?"]},{"code":401,"indent":0,"parameters":["Nein nein, hahaha"]},{"code":401,"indent":0,"parameters":["Ich brech mir ungern die Hand."]},{"code":101,"indent":0,"parameters":["Kazuko2",4,0,2]},{"code":401,"indent":0,"parameters":["Nun mach..."]},{"code":401,"indent":0,"parameters":["Wir haben nun die Kraft des Elementars."]},{"code":401,"indent":0,"parameters":["Du hast eben eine Treppe aus Stein"]},{"code":401,"indent":0,"parameters":["erschaffen! Mach ihn kaputt!"]},{"code":101,"indent":0,"parameters":["Gryen",5,0,2]},{"code":401,"indent":0,"parameters":["Oh, richtig!!"]},{"code":101,"indent":0,"parameters":["Gryen",6,0,2]},{"code":401,"indent":0,"parameters":["HAAAAAA!!!"]},{"code":250,"indent":0,"parameters":[{"name":"Earth2","pan":0,"pitch":100,"volume":100}]},{"code":230,"indent":0,"parameters":[20]},{"code":250,"indent":0,"parameters":[{"name":"Earth2","pan":0,"pitch":100,"volume":100}]},{"code":230,"indent":0,"parameters":[2]},{"code":250,"indent":0,"parameters":[{"name":"Earth2","pan":0,"pitch":100,"volume":100}]},{"code":230,"indent":0,"parameters":[10]},{"code":250,"indent":0,"parameters":[{"name":"Ice11","pan":0,"pitch":80,"volume":100}]},{"code":123,"indent":0,"parameters":["A",0]},{"code":0,"indent":0,"parameters":[]}]},{"conditions":{"actorId":1,"actorValid":false,"itemId":1,"itemValid":false,"selfSwitchCh":"A","selfSwitchValid":true,"switch1Id":1,"switch1Valid":false,"switch2Id":1,"switch2Valid":false,"variableId":1,"variableValid":false,"variableValue":0},"directionFix":false,"image":{"tileId":371,"characterName":"","direction":2,"pattern":0,"characterIndex":0},"moveFrequency":3,"moveRoute":{"list":[{"code":0,"indent":null,"parameters":[]}],"repeat":true,"skippable":false,"wait":false},"moveSpeed":3,"moveType":0,"priorityType":1,"stepAnime":false,"through":false,"trigger":0,"walkAnime":true,"list":[{"code":101,"indent":0,"parameters":["Gryen",1,0,2]},{"code":401,"indent":0,"parameters":["Das war..."]},{"code":101,"indent":0,"parameters":["Gryen",7,0,2]},{"code":401,"indent":0,"parameters":["... easy.."]},{"code":101,"indent":0,"parameters":["Elsa2",4,2,2]},{"code":401,"indent":0,"parameters":["Gryen..."]},{"code":101,"indent":0,"parameters":["Kazuko",4,0,2]},{"code":401,"indent":0,"parameters":["Ja, ich bin froh, dass der Effekt"]},{"code":401,"indent":0,"parameters":["nicht schon abgeklingt ist."]},{"code":401,"indent":0,"parameters":["Ich hatte kurz bedenken."]},{"code":101,"indent":0,"parameters":["Gryen",5,0,2]},{"code":401,"indent":0,"parameters":["Warte, was?!"]},{"code":101,"indent":0,"parameters":["Kazuko",3,0,2]},{"code":401,"indent":0,"parameters":["Wirbel Wind!"]},{"code":250,"indent":0,"parameters":[{"name":"Wind5","pan":0,"pitch":100,"volume":80}]},{"code":123,"indent":0,"parameters":["B",0]},{"code":0,"indent":0,"parameters":[]}]},{"conditions":{"actorId":1,"actorValid":false,"itemId":1,"itemValid":false,"selfSwitchCh":"B","selfSwitchValid":true,"switch1Id":1,"switch1Valid":false,"switch2Id":1,"switch2Valid":false,"variableId":1,"variableValid":false,"variableValue":0},"directionFix":false,"image":{"tileId":0,"characterName":"","direction":4,"pattern":2,"characterIndex":5},"moveFrequency":3,"moveRoute":{"list":[{"code":0,"indent":null,"parameters":[]}],"repeat":true,"skippable":false,"wait":false},"moveSpeed":3,"moveType":0,"priorityType":0,"stepAnime":false,"through":false,"trigger":3,"walkAnime":true,"list":[{"code":101,"indent":0,"parameters":["Kazuko",4,0,2]},{"code":401,"indent":0,"parameters":["Endlich weiter!"]},{"code":101,"indent":0,"parameters":["Gryen",3,0,2]},{"code":401,"indent":0,"parameters":["Wow..."]},{"code":401,"indent":0,"parameters":["Ich meine.."]},{"code":401,"indent":0,"parameters":["WOW!"]},{"code":101,"indent":0,"parameters":["Gryen",3,0,2]},{"code":401,"indent":0,"parameters":["Jetzt kann ich so einiges Platt machen!"]},{"code":101,"indent":0,"parameters":["Kazuko",1,0,2]},{"code":401,"indent":0,"parameters":["Der Effekt wird von Adrenalin"]},{"code":401,"indent":0,"parameters":["oder vollständiger Entspannung"]},{"code":401,"indent":0,"parameters":["verdrängt."]},{"code":101,"indent":0,"parameters":["Kazuko",3,0,2]},{"code":401,"indent":0,"parameters":["Lange wird das also nicht mehr"]},{"code":401,"indent":0,"parameters":["anhalten fürchte ich."]},{"code":101,"indent":0,"parameters":["Gryen",1,0,2]},{"code":401,"indent":0,"parameters":["...mmh"]},{"code":101,"indent":0,"parameters":["Gryen",2,0,2]},{"code":401,"indent":0,"parameters":["Zu schade.."]},{"code":101,"indent":0,"parameters":["Elsa2",4,2,2]},{"code":401,"indent":0,"parameters":["Gryen."]},{"code":123,"indent":0,"parameters":["C",0]},{"code":0,"indent":0,"parameters":[]}]},{"conditions":{"actorId":1,"actorValid":false,"itemId":1,"itemValid":false,"selfSwitchCh":"C","selfSwitchValid":true,"switch1Id":1,"switch1Valid":false,"switch2Id":1,"switch2Valid":false,"variableId":1,"variableValid":false,"variableValue":0},"directionFix":false,"image":{"tileId":0,"characterName":"","direction":2,"pattern":0,"characterIndex":0},"moveFrequency":3,"moveRoute":{"list":[{"code":0,"indent":null,"parameters":[]}],"repeat":true,"skippable":false,"wait":false},"moveSpeed":3,"moveType":0,"priorityType":0,"stepAnime":false,"through":false,"trigger":0,"walkAnime":true,"list":[{"code":0,"indent":0,"parameters":[]}]}],"x":5,"y":6},
{"id":6,"name":"EV006","note":"","pages":[{"conditions":{"actorId":1,"actorValid":false,"itemId":1,"itemValid":false,"selfSwitchCh":"A","selfSwitchValid":false,"switch1Id":89,"switch1Valid":true,"switch2Id":1,"switch2Valid":false,"variableId":1,"variableValid":false,"variableValue":0},"directionFix":false,"image":{"characterIndex":0,"characterName":"","direction":2,"pattern":0,"tileId":0},"list":[{"code":223,"indent":0,"parameters":[[50,-34,-34,0],1,false]},{"code":0,"indent":0,"parameters":[]}],"moveFrequency":3,"moveRoute":{"list":[{"code":0,"parameters":[]}],"repeat":true,"skippable":false,"wait":false},"moveSpeed":3,"moveType":0,"priorityType":0,"stepAnime":false,"through":false,"trigger":4,"walkAnime":true}],"x":12,"y":12},
{"id":7,"name":"EV007","note":"","pages":[{"conditions":{"actorId":1,"actorValid":false,"itemId":1,"itemValid":false,"selfSwitchCh":"A","selfSwitchValid":false,"switch1Id":1,"switch1Valid":false,"switch2Id":1,"switch2Valid":false,"variableId":1,"variableValid":false,"variableValue":0},"directionFix":false,"image":{"tileId":0,"characterName":"Monster2","direction":2,"pattern":1,"characterIndex":0},"moveFrequency":3,"moveRoute":{"list":[{"code":0,"indent":null,"parameters":[]}],"repeat":true,"skippable":false,"wait":false},"moveSpeed":4,"moveType":0,"priorityType":1,"stepAnime":false,"through":false,"trigger":0,"walkAnime":true,"list":[{"code":0,"indent":0,"parameters":[]}]}],"x":11,"y":5},
{"id":8,"name":"EV008","note":"","pages":[{"conditions":{"actorId":1,"actorValid":false,"itemId":1,"itemValid":false,"selfSwitchCh":"A","selfSwitchValid":false,"switch1Id":92,"switch1Valid":false,"switch2Id":1,"switch2Valid":false,"variableId":1,"variableValid":false,"variableValue":0},"directionFix":false,"image":{"tileId":204,"characterName":"","characterIndex":0,"direction":2,"pattern":0},"list":[{"code":0,"indent":0,"parameters":[]}],"moveFrequency":3,"moveRoute":{"list":[{"code":0,"parameters":[]}],"repeat":true,"skippable":false,"wait":false},"moveSpeed":3,"moveType":0,"priorityType":0,"stepAnime":false,"through":false,"trigger":0,"walkAnime":true},{"conditions":{"actorId":1,"actorValid":false,"itemId":1,"itemValid":false,"selfSwitchCh":"A","selfSwitchValid":false,"switch1Id":92,"switch1Valid":true,"switch2Id":1,"switch2Valid":false,"variableId":1,"variableValid":false,"variableValue":0},"directionFix":false,"image":{"tileId":206,"characterName":"","characterIndex":0,"direction":2,"pattern":0},"list":[{"code":0,"indent":0,"parameters":[]}],"moveFrequency":3,"moveRoute":{"list":[{"code":0,"parameters":[]}],"repeat":true,"skippable":false,"wait":false},"moveSpeed":3,"moveType":0,"priorityType":0,"stepAnime":false,"through":false,"trigger":0,"walkAnime":true}],"x":7,"y":7},
{"id":9,"name":"EV009","note":"","pages":[{"conditions":{"actorId":1,"actorValid":false,"itemId":1,"itemValid":false,"selfSwitchCh":"A","selfSwitchValid":false,"switch1Id":1,"switch1Valid":false,"switch2Id":1,"switch2Valid":false,"variableId":1,"variableValid":false,"variableValue":0},"directionFix":false,"image":{"tileId":0,"characterName":"","characterIndex":0,"direction":2,"pattern":0},"moveFrequency":3,"moveRoute":{"list":[{"code":0,"indent":null,"parameters":[]}],"repeat":true,"skippable":false,"wait":false},"moveSpeed":3,"moveType":0,"priorityType":0,"stepAnime":false,"through":false,"trigger":2,"walkAnime":true,"list":[{"code":221,"indent":0,"parameters":[]},{"code":250,"indent":0,"parameters":[{"name":"Breath","pan":0,"pitch":50,"volume":100}]},{"code":230,"indent":0,"parameters":[30]},{"code":250,"indent":0,"parameters":[{"name":"Earth9","pan":0,"pitch":50,"volume":100}]},{"code":230,"indent":0,"parameters":[10]},{"code":250,"indent":0,"parameters":[{"name":"Earth9","pan":0,"pitch":50,"volume":100}]},{"code":230,"indent":0,"parameters":[10]},{"code":121,"indent":0,"parameters":[120,120,0]},{"code":250,"indent":0,"parameters":[{"name":"Earth9","pan":0,"pitch":50,"volume":100}]},{"code":246,"indent":0,"parameters":[1]},{"code":242,"indent":0,"parameters":[4]},{"code":230,"indent":0,"parameters":[150]},{"code":352,"indent":0,"parameters":[]},{"code":201,"indent":0,"parameters":[0,37,17,6,2,0]},{"code":230,"indent":0,"parameters":[25]},{"code":222,"indent":0,"parameters":[]},{"code":101,"indent":0,"parameters":["Elsa",5,0,2]},{"code":401,"indent":0,"parameters":["Oh mist!"]},{"code":401,"indent":0,"parameters":["Was war denn das nun wieder?"]},{"code":101,"indent":0,"parameters":["Kazuko",6,0,2]},{"code":401,"indent":0,"parameters":["Wir sind runter gefallen..."]},{"code":230,"indent":0,"parameters":[20]},{"code":101,"indent":0,"parameters":["Elsa",5,0,2]},{"code":401,"indent":0,"parameters":["...."]},{"code":230,"indent":0,"parameters":[20]},{"code":101,"indent":0,"parameters":["Elsa",5,0,2]},{"code":401,"indent":0,"parameters":["Das seh ich selbst.."]},{"code":230,"indent":0,"parameters":[20]},{"code":121,"indent":0,"parameters":[92,92,0]},{"code":0,"indent":0,"parameters":[]}]},{"conditions":{"actorId":1,"actorValid":false,"itemId":1,"itemValid":false,"selfSwitchCh":"A","selfSwitchValid":false,"switch1Id":92,"switch1Valid":true,"switch2Id":1,"switch2Valid":false,"variableId":1,"variableValid":false,"variableValue":0},"directionFix":false,"image":{"tileId":198,"characterName":"","characterIndex":0,"direction":2,"pattern":0},"list":[{"code":0,"indent":0,"parameters":[]}],"moveFrequency":3,"moveRoute":{"list":[{"code":0,"parameters":[]}],"repeat":true,"skippable":false,"wait":false},"moveSpeed":3,"moveType":0,"priorityType":0,"stepAnime":false,"through":false,"trigger":0,"walkAnime":true}],"x":7,"y":6},
null
]
}