{
"autoplayBgm":true,"autoplayBgs":true,"battleback1Name":"DirtField","battleback2Name":"Forest1","bgm":{"name":"Field1","pan":0,"pitch":125,"volume":85},"bgs":{"name":"","pan":0,"pitch":125,"volume":35},"disableDashing":false,"displayName":"Fjordmeerstraße","encounterList":[],"encounterStep":30,"height":25,"note":"","parallaxLoopX":false,"parallaxLoopY":false,"parallaxName":"","parallaxShow":false,"parallaxSx":0,"parallaxSy":0,"scrollType":0,"specifyBattleback":true,"tilesetId":12,"width":30,
"data":[2854,5663,5655,5663,2832,2820,2844,2854,5655,4403,4402,4402,4402,4402,4402,4402,4402,4402,4402,4406,5651,5650,5650,5650,5650,5650,5650,5650,5650,5650,5663,2858,5653,2851,2845,2841,5659,5662,5661,4405,4400,4400,4400,4400,4400,4400,4400,4400,4400,4404,5649,5648,5648,5648,5648,5648,5648,5648,5648,5648,2849,2855,5653,2848,5663,2833,2836,2837,2861,4405,4400,4400,4400,4400,4400,4400,4400,4400,4400,4404,5649,5648,5648,5648,5648,5648,5648,5648,5648,5648,5651,5654,5653,2833,2836,2817,2816,2840,5655,5651,4400,4400,4400,4400,4400,4400,4400,4400,4400,5651,5649,5648,5648,5648,5648,5648,5648,5648,5648,5648,5648,5649,5661,2834,2844,2828,2844,2841,5653,5656,5655,4400,4400,4400,4400,4400,4400,4400,5651,5649,5649,5648,5648,5648,5648,5648,5648,5648,5648,5648,5648,5652,2850,2842,5663,2860,5663,2860,5653,2858,5661,5659,4405,4400,4400,4400,4400,5651,5649,5649,5649,5648,5648,5648,5648,5648,5648,5648,5648,5648,5648,5652,2832,2818,2852,5663,2862,5659,5653,2833,2836,2852,5659,4405,4400,4400,5651,5649,5649,5649,5649,5648,5648,5648,5648,5648,5648,5648,5648,5648,5648,5652,2834,2844,2846,2853,5663,2862,5661,2834,2844,2846,2853,5651,4400,5651,5649,5649,5649,5649,5649,5648,5648,5648,5648,5648,5648,5648,5648,5648,5648,5652,2860,5663,5655,2857,2853,5663,2851,2855,5655,5663,2860,5657,4400,5649,5649,5649,5649,5649,5649,5648,5648,5648,5648,5648,5648,5648,5648,5648,5648,5649,5655,2862,5661,5663,2857,2849,2855,5659,5652,4407,4403,4406,4408,5649,5649,5649,5649,5649,5649,5648,5648,5648,5648,5648,5648,5648,5648,5648,5648,5648,5653,5655,2850,2852,5663,5655,5663,2862,5653,4413,5651,5650,5650,5649,5649,5649,5649,5649,5649,5648,5648,5648,5648,5648,5648,5648,5648,5648,5648,5648,5648,5653,2832,2818,2852,5661,2862,5663,5661,2862,5657,5649,5648,5649,5649,5649,5649,5649,5649,5648,5648,5648,5648,5648,5648,5648,5648,5648,5648,5648,5648,5653,2856,2824,2818,2852,5655,2851,2861,2954,2862,5657,5649,5649,5649,5649,5649,5649,5649,5648,5648,5648,5648,5648,5648,5648,5648,5648,5648,5648,5648,5649,5655,2856,2844,2854,5661,2848,5655,2944,5655,2858,5649,5649,5649,5649,5649,5649,5649,5648,5648,5648,5648,5648,5648,5648,5648,5648,5648,5648,5648,5648,5653,5651,5650,5654,2859,2843,5653,2944,5653,2860,5649,5649,5649,5649,5649,5649,5649,5648,5648,5648,5648,5648,5648,5648,5648,5648,5648,5648,5648,5648,5648,5648,5648,5652,5655,2848,5661,2944,5657,5651,5649,5649,5649,5649,5649,5649,5649,5648,5648,5648,5648,5648,5648,5648,5648,5648,5648,5648,5648,5648,5648,5648,5648,5648,5653,2857,2861,2953,2949,5657,5649,5649,5649,5649,5649,5649,5649,5648,5648,5648,5648,5648,5648,5648,5648,5648,5648,5648,5648,5648,5648,5648,5648,5648,5653,5651,5650,5654,2953,2949,5649,5649,5649,5649,5649,5649,5649,5648,5648,5648,5648,5648,5648,5648,5648,5648,5648,5648,5648,5648,5648,5648,5648,5648,5652,5652,5652,5652,2862,2944,5657,5649,5649,5649,5649,5649,5649,5648,5648,5648,5648,5648,5648,5648,5648,5648,5648,5648,5648,5648,5648,5648,5648,5648,5652,5652,5652,5652,5655,2953,2949,5649,5649,5649,5649,5649,5649,5648,5648,5648,5648,5648,5648,5648,5648,5648,5648,5648,5648,5648,5648,5648,5648,5648,5652,5652,5652,5652,5660,5663,2944,5653,5656,5653,5649,5649,5649,5648,5648,5648,5648,5648,5648,5648,5648,5648,5648,5648,5648,5648,5648,5648,5648,5648,5652,5652,5652,5652,2859,2853,2944,5661,2862,5653,5649,5649,5649,5648,5648,5648,5648,5648,5648,5648,5648,5648,5648,5648,5648,5648,5648,5648,5648,5648,5652,5652,5652,5652,5655,2848,2953,2949,5655,5653,5649,5649,5649,5648,5648,5648,5648,5648,5648,5648,5648,5648,5648,5648,5648,5648,5648,5648,5648,5648,5652,5652,5652,5661,5653,2848,5655,2944,5653,5649,5649,5649,5649,5648,5648,5648,5648,5648,5648,5648,5648,5648,5656,5656,5656,5656,5656,5656,5656,5656,5660,5660,5660,2858,5661,2848,5661,2944,5661,5657,5657,5657,5657,5656,5656,5656,5656,5656,5656,5656,5656,5656,0,0,0,0,0,0,0,0,0,0,0,0,0,0,0,0,0,0,0,0,0,0,0,0,0,0,0,0,0,0,0,0,0,0,0,0,0,0,0,0,0,0,0,0,0,0,0,0,0,0,0,0,0,0,0,0,0,0,0,0,0,0,0,0,0,0,0,0,0,0,0,0,0,0,0,0,0,0,0,0,0,0,0,0,0,0,0,0,0,0,0,0,0,0,0,0,0,0,0,0,0,0,0,0,0,0,0,0,0,0,0,0,0,0,0,0,0,0,0,0,0,0,0,0,0,0,0,0,0,0,0,0,0,0,0,0,0,0,0,0,0,0,0,0,0,0,0,0,0,0,0,0,0,0,0,0,0,0,0,0,0,0,0,0,0,0,0,0,0,0,0,0,0,0,0,0,0,0,0,0,0,0,0,0,0,0,0,0,0,0,0,0,0,0,0,0,0,0,0,0,0,0,0,0,0,0,0,0,0,0,0,0,0,0,0,0,0,0,0,0,0,0,0,0,0,0,0,0,0,0,0,0,0,0,0,0,0,0,0,0,0,0,0,0,0,0,0,0,0,0,0,0,0,0,0,0,0,0,0,0,0,0,0,0,0,0,0,0,0,0,0,0,0,0,0,0,0,0,0,0,0,0,0,0,0,0,0,0,0,0,0,0,0,0,0,0,0,0,0,0,0,0,0,0,0,0,0,0,0,0,0,0,0,0,0,0,0,0,0,0,0,0,0,0,0,0,0,0,0,0,0,0,0,0,0,0,0,0,0,0,0,0,0,0,0,0,0,0,0,0,0,0,0,0,0,0,0,0,0,0,0,0,0,0,0,0,0,0,0,0,0,0,0,0,0,0,0,0,0,0,0,0,0,0,0,0,0,0,0,0,0,0,0,0,0,0,0,0,0,0,0,0,0,0,0,0,0,0,0,0,0,0,0,0,0,0,0,0,0,0,0,0,0,0,0,0,0,0,0,0,0,0,0,0,0,0,0,0,0,0,0,0,0,0,0,0,0,0,0,0,0,0,0,0,0,0,0,0,0,0,0,0,0,0,0,0,0,0,0,0,0,0,0,0,0,0,0,0,0,0,0,0,0,0,0,0,0,0,0,0,0,0,0,0,0,0,0,0,0,0,0,0,0,0,0,0,0,0,0,0,0,0,0,0,0,0,0,0,0,0,0,0,0,0,0,0,0,0,0,0,0,0,0,0,0,0,0,0,0,0,0,0,0,0,0,0,0,0,0,0,0,0,0,0,0,0,0,0,0,0,0,0,0,0,0,0,0,0,0,0,0,0,0,0,0,0,0,0,0,0,0,0,0,0,0,0,0,0,0,0,0,0,0,0,0,0,0,0,0,0,0,0,0,0,0,0,0,0,0,0,0,0,0,0,0,0,0,0,0,0,0,0,0,0,0,0,0,0,0,0,0,0,0,0,0,0,0,0,0,0,0,0,0,0,0,0,0,0,0,0,0,0,0,0,0,0,0,0,0,0,0,0,0,0,0,0,0,0,0,0,0,0,0,0,0,0,0,0,0,0,0,0,0,0,0,0,0,0,0,0,0,0,0,0,0,0,0,0,0,0,0,0,0,0,0,0,0,0,0,0,0,0,0,0,0,0,0,0,0,0,0,0,0,0,0,0,0,0,0,0,0,0,0,0,0,0,0,0,0,0,0,0,0,0,0,0,0,0,0,0,0,768,0,768,0,0,0,0,768,0,0,0,0,0,0,0,0,0,0,0,768,0,768,768,768,768,768,768,768,0,768,0,768,0,0,0,768,768,768,0,0,0,0,0,0,0,0,0,0,0,0,768,768,768,768,768,768,768,768,0,0,0,768,0,768,0,0,0,0,0,0,0,0,0,0,0,0,0,0,0,768,768,768,768,768,768,768,768,0,0,768,768,768,0,0,0,0,0,0,768,0,0,0,0,0,0,0,0,0,0,768,768,768,768,768,0,768,0,0,358,0,768,768,0,0,0,0,0,768,768,768,0,0,0,0,0,0,0,0,0,768,768,768,768,768,0,768,768,768,768,0,768,0,0,768,0,768,0,768,0,768,0,0,0,0,0,0,768,348,768,768,768,0,768,768,768,768,0,768,768,0,768,0,0,0,768,0,768,768,0,0,0,0,0,0,0,0,768,768,768,768,768,377,768,768,768,768,768,768,768,0,768,0,0,0,0,768,0,768,0,0,0,0,768,0,768,768,768,768,768,768,768,376,768,768,768,768,768,0,768,0,768,0,768,768,0,0,768,0,0,768,768,0,768,0,768,768,348,768,768,768,768,371,768,768,768,768,345,768,370,0,0,768,0,768,768,0,0,0,768,768,0,0,0,0,768,768,768,768,768,768,768,370,371,768,768,768,768,768,768,0,0,0,768,0,0,768,768,768,0,768,0,768,768,0,768,768,768,768,345,768,768,768,768,768,768,370,368,768,768,0,0,0,768,0,0,0,768,0,0,768,0,768,768,768,768,768,0,0,768,768,768,768,768,353,768,378,370,768,376,0,0,0,768,0,0,0,0,768,0,0,0,0,768,768,0,0,0,0,0,0,0,0,371,768,768,369,368,369,768,0,0,0,0,768,0,0,0,768,0,768,0,768,0,768,0,0,0,0,0,0,0,0,0,0,0,0,0,371,768,0,0,0,0,0,768,768,768,0,0,768,0,768,0,768,0,0,0,0,0,0,0,0,0,0,0,0,0,0,0,0,0,0,0,0,768,768,377,768,0,768,0,768,0,768,0,0,0,0,0,0,0,0,0,0,0,0,0,0,0,0,0,0,0,0,768,768,0,768,0,0,0,0,0,768,0,0,0,0,0,0,0,0,0,0,0,0,0,0,0,0,0,0,0,0,0,0,0,768,768,768,768,0,0,768,370,371,0,0,0,0,0,0,0,0,0,0,0,0,0,0,0,0,0,0,0,0,0,0,0,0,768,0,0,768,768,768,0,0,0,0,0,0,0,0,0,0,0,0,0,0,0,0,0,0,0,0,0,0,0,0,768,768,0,0,768,768,0,0,0,0,0,0,0,0,0,0,0,0,0,0,0,0,0,0,0,0,0,0,0,0,768,768,768,0,768,768,371,0,0,0,0,0,0,0,0,0,0,0,0,0,0,0,0,0,0,0,0,0,0,0,768,0,0,0,768,0,768,378,0,0,0,0,0,0,0,0,0,0,0,0,0,0,0,0,0,0,0,0,0,768,768,768,0,0,0,0,768,768,0,0,0,0,0,0,0,0,0,0,0,0,0,0,0,0,0,0,0,0,0,768,768,768,0,0,0,768,0,768,0,0,0,0,0,0,0,0,0,0,0,0,0,0,0,0,0,0,0,0,0,768,0,768,0,0,0,0,768,768,0,0,0,0,0,0,0,0,0,0,0,376,377,768,349,355,354,354,376,377,0,0,0,0,0,0,0,0,0,0,0,358,768,358,349,358,358,349,357,349,768,349,348,348,357,345,355,368,369,358,0,0,0,0,0,0,0,0,0,0,0,768,354,358,357,358,349,357,349,357,768,357,348,368,369,348,349,376,377,0,0,0,467,0,0,0,0,0,467,0,0,348,354,349,368,369,357,358,357,768,768,369,355,376,377,358,357,358,354,768,358,0,475,0,0,0,0,0,475,0,768,368,369,357,376,377,768,349,768,768,768,378,369,349,358,345,0,0,358,358,349,358,483,0,0,0,0,0,483,768,768,376,377,368,369,358,768,357,358,358,349,370,377,357,345,348,358,349,355,348,357,358,768,0,0,0,0,0,345,768,348,345,368,379,377,368,369,349,768,358,357,378,369,354,348,358,348,357,348,348,0,349,0,768,467,0,346,768,345,348,345,348,376,368,369,376,377,357,349,354,358,370,377,355,368,369,0,348,0,358,0,357,0,358,475,0,368,369,348,345,348,348,368,369,377,358,368,369,357,768,368,378,369,345,376,377,0,348,348,0,358,348,348,0,483,0,376,377,768,348,368,369,376,368,369,345,376,377,768,368,369,370,371,369,345,349,354,368,369,348,348,349,0,0,0,0,368,369,345,348,376,377,368,369,368,369,354,368,369,376,377,378,379,378,369,357,348,376,377,349,0,357,0,368,369,768,376,377,368,369,768,345,376,377,376,377,368,369,371,369,368,370,371,370,377,0,348,345,349,357,768,349,823,376,377,368,369,368,370,371,369,368,369,368,369,768,376,377,379,371,369,378,379,378,369,348,0,348,357,348,0,357,0,0,348,376,378,379,378,379,378,379,378,370,368,369,368,379,378,379,377,370,371,370,371,369,345,348,345,348,368,369,0,467,349,368,370,371,370,371,370,371,370,378,379,378,370,371,370,368,369,378,379,378,379,378,369,368,369,348,376,377,0,475,357,376,378,379,378,379,378,379,378,379,371,370,378,379,378,379,378,370,371,370,371,370,377,376,368,369,345,354,0,483,768,368,370,371,370,371,370,371,370,371,370,371,370,371,370,371,370,378,379,378,379,378,369,368,370,377,345,345,0,0,768,376,378,379,378,379,378,379,378,379,378,379,378,379,378,379,378,370,371,370,371,370,371,370,371,369,368,369,355,0,0,368,369,368,370,371,370,371,370,371,370,371,370,371,370,371,370,371,370,371,370,371,370,371,370,371,370,378,369,345,0,376,377,376,371,370,371,370,371,370,371,370,378,379,378,379,378,379,378,379,378,379,378,379,378,379,378,370,377,368,369,0,467,368,379,378,379,378,379,378,379,378,370,371,370,371,370,371,370,371,370,371,370,371,370,371,370,378,369,376,377,0,475,376,368,370,371,370,371,370,371,370,378,379,378,379,378,379,378,379,378,379,378,379,378,379,378,370,377,345,0,0,483,354,376,368,379,378,379,378,379,378,370,371,370,371,370,371,370,371,370,371,370,371,370,371,370,377,368,369,345,0,0,768,348,376,371,370,371,370,371,370,378,379,378,379,378,379,378,379,378,379,378,379,378,379,378,369,376,377,345,768,0,354,768,368,379,378,379,378,379,378,370,371,370,371,370,371,370,371,370,371,370,371,370,371,370,377,354,354,355,768,0,768,348,376,371,370,371,370,371,370,378,379,378,379,378,0,0,0,0,0,0,0,0,0,0,0,0,0,0,0,0,0,0,0,0,0,0,0,0,0,0,0,0,0,0,0,0,0,0,0,0,0,0,0,0,0,0,0,0,0,0,0,0,0,0,0,0,0,0,0,0,0,0,0,0,0,0,0,0,0,0,0,0,0,0,0,0,0,0,0,0,0,0,0,0,0,0,0,0,0,0,0,0,0,0,0,0,0,0,0,0,0,0,0,0,0,0,0,0,0,0,0,0,0,0,0,0,0,0,0,0,0,0,0,0,0,0,0,0,0,0,0,0,0,0,0,0,0,0,0,0,0,0,0,0,0,0,0,0,0,0,0,0,0,0,0,0,0,0,0,0,0,0,0,0,0,0,0,0,0,0,0,0,0,0,0,0,0,0,0,0,0,0,0,0,0,0,0,0,0,0,0,0,0,0,0,0,0,0,0,0,0,0,0,0,0,0,0,0,0,0,0,0,0,0,0,0,0,0,0,0,0,0,0,0,0,0,0,0,0,0,0,0,0,0,0,0,0,0,0,0,0,0,0,0,0,0,0,0,0,0,0,0,0,0,0,0,0,0,0,0,0,0,0,0,0,0,0,0,0,0,0,0,0,0,0,0,0,0,0,0,0,0,0,0,0,0,0,0,0,0,0,0,0,0,0,0,0,0,0,0,0,0,0,0,0,0,0,0,0,0,0,0,0,0,0,0,0,0,0,0,0,0,0,0,0,0,0,0,0,0,0,0,0,0,0,0,0,0,0,0,0,0,0,0,0,5,0,0,0,0,0,0,0,0,0,0,0,0,0,0,0,0,0,0,0,0,0,0,0,0,0,0,0,0,0,0,0,0,0,0,0,0,0,0,0,0,0,0,0,0,0,0,0,0,0,0,0,0,0,0,0,0,0,0,0,0,0,0,0,0,0,0,0,0,0,0,0,0,0,0,0,0,0,0,0,0,0,0,0,0,0,0,0,0,0,0,0,0,0,0,0,0,0,0,0,0,0,0,0,0,0,0,0,0,0,0,0,0,0,0,0,0,0,0,0,0,0,0,0,0,0,0,0,0,0,0,0,0,0,0,0,0,0,0,0,0,0,0,0,0,0,0,0,0,0,0,0,0,0,0,0,0,0,0,0,0,0,0,0,0,0,0,0,0,0,0,0,0,0,0,0,0,0,0,0,0,0,0,0,0,0,0,0,0,0,0,0,0,0,0,0,0,0,0,0,0,0,0,0,0,0,0,0,0,0,0,0,0,0,0,0,0,0,0,0,0,0,0,0,0,0,0,0,0,0,0,0,0,0,0,0,0,0,0,0,0,0,0,0,0,0,0,0,0,0,0,0,0,0,0,0,0,0,0,0,0,0,0,0,0,0,0,0,0,0,0,0,0,0,0,0,0,0,0,0,0,0,0,0,0,0,0,0,0,0,0,0,0,0,0,0,0,0,0,0,0,0,0,0,0,0,0,0,0,0,0,0,0,0,0,0,0,0,0,0,0,0,0,0,0,0,0,0,0,0,0,0,0,0,0,0,0,0,0,0,0,0,0,0,0,0,0,0,0,0,0,0,0,0,0,0,0,0,0,0,0,0,0,0,0,0,0,0,0,0,0,0,0,0,0,0,0,0,0,0,0,0,0,0,0,0,0,0,0,0,0,0,0,0,0,0,0,0,0,0,0,0,0,0,0,0,0,0,0,0,0,0,0,0,0,0,0,0,0,0,0,0,0,0,0,0,0,0,0,0,0,0,0,0,0,0,0,0,0,0,0,0,0,0,0,0,0,0,0,0,0,0,0,0,0,0,0,0,0,0,0,0,0,0,0,0,0,0,0,0,0,0,0,0,0,0,0,0,0,0,0,0,0,0,0,0,0,0,0,0,0,0,0,0,0,0,0,0,0,0,0,0,0,0,0,0,0,0,0,0,0,0,0,0,0,0,0,0,0,0,0,0,0,0,0,0,0,0,0,0,0,0,0,0,0,0,0,0,0,0,0,0,0,0,0,0,0,0,0,0,0,0,0,0,0,0,0,0,0,0,0,0,0,0,0,0,0,0,0,0,0,0,0,0,0,0,0,0,0,0,0,0,0,0,0,0,0,0,0,0,0,0,0,0,0,0,0,0,0,0,0,0,0,0,0,0,0,0,0,0,0,0,0,0,0,0,0,0,0,0,0,0,0,0,0,0,0,0,0,0,0,0,0,0,0,0,0,0,0,0,0,0,0,0,0,0,0,0,0,0,0,0,0,0,0,0,0,0,0,0,0,0,0,0,0,0,0,0,0,0,0,0,0,0,0,0,0,0,0,0,0,0,0,0,0,0,0,0,0,0,0,0,0,0,0,0,0,0,0,0,0,0,0,0,0,0,0,0,0,0,0,0,0,0,0,0,0,0,0,0,0,0,0,0,0,0,0,0,0,0,0,0,0,0,0,0,0,0,0,0,0,0,0,0,0,0,0,0,0,0,0,0,0,0,0,0,0,0,0,0,0,0,0,0,0,0,0,0,0,0,0,0,0,0,0,0,0,0,0,0,0,0,0,0,0,0,0,0,0,0,0,0,0,0,0,0,0,0,0,0,0,0,0,0,0,0,0,0,0,0,0,0,0,0,0,0,0,0,0,0,0,0,0,0,0,0,0,0,0,0,0,0,0,0,0,0,0,0,0,0,0,0,0,0,0,0,0,0,0,0,0,0,0,0,0,0,0,0,0,0,0,0,0,0,0,0,0,0,0,0,0,0,0,0,0,0,0,0,0,0,0,0,0,0,0,0,0,0,0,0,0,0,0,0,0,0,0,0,0,0,0,0,0,0,0,0,0,0,0,0,0,0,0,0,0,0,0,0,0,0,0,0,0,0,0,0,0,0,0,0,0,0,0,0,0,0,0,0,0,0,0,0,0,0,0,0,0,0,0,0,0,0,0,0,0,0,0,0,0,0,0,0,0,0,0,0,0,0,0,0,0,0,0,0,0,0,0,0,0,0,0,0,0,0,0,0,0,0,0,0,0,0,0,0,0,0,0,0,0,0,0,0,0,0,0,0,0,0,0,0,0,0,0,0,0,0,0,0,0,0,0,0,0,0,0,0,0,0,0,0,0,0,0,0,0,0,0,0,0,0,0,0,0,0,0,0,0,0,0,0,0,0,0,0,0,0,0,0,0,0,0,0,0,0,0,0,0,0,0,0,0,0,0,0,0,0,0,0,0,0,0,0,0,0,0,0,0,0,0,0,0,0,0,0,0,0,0,0,0,0,0,0,0,0,0,0,0,0,0,0,0,0,0,0,0,0,0,0,0,0,0,0,0,0,0,0,0,0,0,0,0,0,0,0,0,0,0,0,0,0,0,0,0,0,0,0,0,0,0,0,0,0,0,0,0,0,0,0,0],
"events":[
null,
{"id":1,"name":"EV001","note":"","pages":[{"conditions":{"actorId":1,"actorValid":false,"itemId":1,"itemValid":false,"selfSwitchCh":"A","selfSwitchValid":false,"switch1Id":1,"switch1Valid":false,"switch2Id":1,"switch2Valid":false,"variableId":1,"variableValid":false,"variableValue":0},"directionFix":false,"image":{"tileId":0,"characterName":"","direction":2,"pattern":0,"characterIndex":0},"moveFrequency":3,"moveRoute":{"list":[{"code":0,"indent":null,"parameters":[]}],"repeat":true,"skippable":false,"wait":false},"moveSpeed":3,"moveType":0,"priorityType":0,"stepAnime":false,"through":false,"trigger":2,"walkAnime":true,"list":[{"code":201,"indent":0,"parameters":[0,19,8,21,0,0]},{"code":0,"indent":0,"parameters":[]}]}],"x":9,"y":0},
{"id":2,"name":"EV002","note":"","pages":[{"conditions":{"actorId":1,"actorValid":false,"itemId":1,"itemValid":false,"selfSwitchCh":"A","selfSwitchValid":false,"switch1Id":1,"switch1Valid":false,"switch2Id":1,"switch2Valid":false,"variableId":1,"variableValid":false,"variableValue":0},"directionFix":false,"image":{"tileId":0,"characterName":"","direction":2,"pattern":0,"characterIndex":0},"moveFrequency":3,"moveRoute":{"list":[{"code":0,"indent":null,"parameters":[]}],"repeat":true,"skippable":false,"wait":false},"moveSpeed":3,"moveType":0,"priorityType":0,"stepAnime":false,"through":false,"trigger":2,"walkAnime":true,"list":[{"code":201,"indent":0,"parameters":[0,19,9,21,0,0]},{"code":0,"indent":0,"parameters":[]}]}],"x":10,"y":0},
{"id":3,"name":"EV003","note":"","pages":[{"conditions":{"actorId":1,"actorValid":false,"itemId":1,"itemValid":false,"selfSwitchCh":"A","selfSwitchValid":false,"switch1Id":1,"switch1Valid":false,"switch2Id":1,"switch2Valid":false,"variableId":1,"variableValid":false,"variableValue":0},"directionFix":false,"image":{"tileId":0,"characterName":"","direction":2,"pattern":0,"characterIndex":0},"moveFrequency":3,"moveRoute":{"list":[{"code":0,"indent":null,"parameters":[]}],"repeat":true,"skippable":false,"wait":false},"moveSpeed":3,"moveType":0,"priorityType":0,"stepAnime":false,"through":false,"trigger":2,"walkAnime":true,"list":[{"code":201,"indent":0,"parameters":[0,19,10,21,0,0]},{"code":0,"indent":0,"parameters":[]}]}],"x":11,"y":0},
{"id":4,"name":"EV004","note":"","pages":[{"conditions":{"actorId":1,"actorValid":false,"itemId":1,"itemValid":false,"selfSwitchCh":"A","selfSwitchValid":false,"switch1Id":1,"switch1Valid":false,"switch2Id":1,"switch2Valid":false,"variableId":1,"variableValid":false,"variableValue":0},"directionFix":false,"image":{"tileId":0,"characterName":"","direction":2,"pattern":0,"characterIndex":0},"moveFrequency":3,"moveRoute":{"list":[{"code":0,"indent":null,"parameters":[]}],"repeat":true,"skippable":false,"wait":false},"moveSpeed":3,"moveType":0,"priorityType":0,"stepAnime":false,"through":false,"trigger":2,"walkAnime":true,"list":[{"code":201,"indent":0,"parameters":[0,19,12,21,0,0]},{"code":0,"indent":0,"parameters":[]}]}],"x":12,"y":0},
{"id":5,"name":"EV005","note":"","pages":[{"conditions":{"actorId":1,"actorValid":false,"itemId":1,"itemValid":false,"selfSwitchCh":"A","selfSwitchValid":false,"switch1Id":1,"switch1Valid":false,"switch2Id":1,"switch2Valid":false,"variableId":1,"variableValid":false,"variableValue":0},"directionFix":false,"image":{"tileId":0,"characterName":"","direction":2,"pattern":0,"characterIndex":0},"moveFrequency":3,"moveRoute":{"list":[{"code":0,"indent":null,"parameters":[]}],"repeat":true,"skippable":false,"wait":false},"moveSpeed":3,"moveType":0,"priorityType":0,"stepAnime":false,"through":false,"trigger":2,"walkAnime":true,"list":[{"code":201,"indent":0,"parameters":[0,19,13,21,0,0]},{"code":0,"indent":0,"parameters":[]}]}],"x":13,"y":0},
{"id":6,"name":"EV006","note":"","pages":[{"conditions":{"actorId":1,"actorValid":false,"itemId":1,"itemValid":false,"selfSwitchCh":"A","selfSwitchValid":false,"switch1Id":1,"switch1Valid":false,"switch2Id":1,"switch2Valid":false,"variableId":1,"variableValid":false,"variableValue":0},"directionFix":false,"image":{"tileId":0,"characterName":"","direction":2,"pattern":0,"characterIndex":0},"moveFrequency":3,"moveRoute":{"list":[{"code":0,"indent":null,"parameters":[]}],"repeat":true,"skippable":false,"wait":false},"moveSpeed":3,"moveType":0,"priorityType":0,"stepAnime":false,"through":false,"trigger":2,"walkAnime":true,"list":[{"code":201,"indent":0,"parameters":[0,19,14,21,0,0]},{"code":0,"indent":0,"parameters":[]}]}],"x":14,"y":0},
{"id":7,"name":"EV007","note":"","pages":[{"conditions":{"actorId":1,"actorValid":false,"itemId":1,"itemValid":false,"selfSwitchCh":"A","selfSwitchValid":false,"switch1Id":1,"switch1Valid":false,"switch2Id":1,"switch2Valid":false,"variableId":1,"variableValid":false,"variableValue":0},"directionFix":false,"image":{"tileId":0,"characterName":"","direction":2,"pattern":0,"characterIndex":0},"moveFrequency":3,"moveRoute":{"list":[{"code":0,"indent":null,"parameters":[]}],"repeat":true,"skippable":false,"wait":false},"moveSpeed":3,"moveType":0,"priorityType":0,"stepAnime":false,"through":false,"trigger":2,"walkAnime":true,"list":[{"code":201,"indent":0,"parameters":[0,19,15,21,0,0]},{"code":0,"indent":0,"parameters":[]}]}],"x":15,"y":0},
{"id":8,"name":"EV008","note":"","pages":[{"conditions":{"actorId":1,"actorValid":false,"itemId":1,"itemValid":false,"selfSwitchCh":"A","selfSwitchValid":false,"switch1Id":1,"switch1Valid":false,"switch2Id":1,"switch2Valid":false,"variableId":1,"variableValid":false,"variableValue":0},"directionFix":false,"image":{"tileId":0,"characterName":"","direction":2,"pattern":0,"characterIndex":0},"moveFrequency":3,"moveRoute":{"list":[{"code":0,"indent":null,"parameters":[]}],"repeat":true,"skippable":false,"wait":false},"moveSpeed":3,"moveType":0,"priorityType":0,"stepAnime":false,"through":false,"trigger":2,"walkAnime":true,"list":[{"code":201,"indent":0,"parameters":[0,19,16,21,0,0]},{"code":0,"indent":0,"parameters":[]}]}],"x":16,"y":0},
{"id":9,"name":"EV009","note":"","pages":[{"conditions":{"actorId":1,"actorValid":false,"itemId":1,"itemValid":false,"selfSwitchCh":"A","selfSwitchValid":false,"switch1Id":1,"switch1Valid":false,"switch2Id":1,"switch2Valid":false,"variableId":1,"variableValid":false,"variableValue":0},"directionFix":false,"image":{"tileId":0,"characterName":"","direction":2,"pattern":0,"characterIndex":0},"moveFrequency":3,"moveRoute":{"list":[{"code":0,"indent":null,"parameters":[]}],"repeat":true,"skippable":false,"wait":false},"moveSpeed":3,"moveType":0,"priorityType":0,"stepAnime":false,"through":false,"trigger":2,"walkAnime":true,"list":[{"code":201,"indent":0,"parameters":[0,19,18,21,0,0]},{"code":0,"indent":0,"parameters":[]}]}],"x":17,"y":0},
{"id":10,"name":"EV010","note":"","pages":[{"conditions":{"actorId":1,"actorValid":false,"itemId":1,"itemValid":false,"selfSwitchCh":"A","selfSwitchValid":false,"switch1Id":1,"switch1Valid":false,"switch2Id":1,"switch2Valid":false,"variableId":1,"variableValid":false,"variableValue":0},"directionFix":false,"image":{"tileId":0,"characterName":"","direction":2,"pattern":0,"characterIndex":0},"moveFrequency":3,"moveRoute":{"list":[{"code":0,"indent":null,"parameters":[]}],"repeat":true,"skippable":false,"wait":false},"moveSpeed":3,"moveType":0,"priorityType":0,"stepAnime":false,"through":false,"trigger":2,"walkAnime":true,"list":[{"code":201,"indent":0,"parameters":[0,19,19,21,0,0]},{"code":0,"indent":0,"parameters":[]}]}],"x":18,"y":0},
{"id":11,"name":"EV011","note":"","pages":[{"conditions":{"actorId":1,"actorValid":false,"itemId":1,"itemValid":false,"selfSwitchCh":"A","selfSwitchValid":false,"switch1Id":1,"switch1Valid":false,"switch2Id":1,"switch2Valid":false,"variableId":1,"variableValid":false,"variableValue":0},"directionFix":false,"image":{"tileId":0,"characterName":"","direction":2,"pattern":0,"characterIndex":0},"moveFrequency":3,"moveRoute":{"list":[{"code":0,"indent":null,"parameters":[]}],"repeat":true,"skippable":false,"wait":false},"moveSpeed":3,"moveType":0,"priorityType":0,"stepAnime":false,"through":false,"trigger":2,"walkAnime":true,"list":[{"code":201,"indent":0,"parameters":[0,19,20,21,0,0]},{"code":0,"indent":0,"parameters":[]}]}],"x":19,"y":0},
{"id":12,"name":"EV012","note":"","pages":[{"conditions":{"actorId":1,"actorValid":false,"itemId":1,"itemValid":false,"selfSwitchCh":"A","selfSwitchValid":false,"switch1Id":1,"switch1Valid":false,"switch2Id":1,"switch2Valid":false,"variableId":1,"variableValid":false,"variableValue":0},"directionFix":false,"image":{"tileId":0,"characterName":"","direction":2,"pattern":0,"characterIndex":0},"moveFrequency":3,"moveRoute":{"list":[{"code":0,"indent":null,"parameters":[]}],"repeat":true,"skippable":false,"wait":false},"moveSpeed":3,"moveType":0,"priorityType":0,"stepAnime":false,"through":false,"trigger":2,"walkAnime":true,"list":[{"code":201,"indent":0,"parameters":[0,19,23,21,0,0]},{"code":0,"indent":0,"parameters":[]}]}],"x":21,"y":0},
{"id":13,"name":"EV013","note":"","pages":[{"conditions":{"actorId":1,"actorValid":false,"itemId":1,"itemValid":false,"selfSwitchCh":"A","selfSwitchValid":false,"switch1Id":1,"switch1Valid":false,"switch2Id":1,"switch2Valid":false,"variableId":1,"variableValid":false,"variableValue":0},"directionFix":false,"image":{"tileId":0,"characterName":"","direction":2,"pattern":0,"characterIndex":0},"moveFrequency":3,"moveRoute":{"list":[{"code":0,"indent":null,"parameters":[]}],"repeat":true,"skippable":false,"wait":false},"moveSpeed":3,"moveType":0,"priorityType":0,"stepAnime":false,"through":false,"trigger":2,"walkAnime":true,"list":[{"code":201,"indent":0,"parameters":[0,19,38,21,0,0]},{"code":0,"indent":0,"parameters":[]}]}],"x":29,"y":0},
{"id":14,"name":"EV014","note":"","pages":[{"conditions":{"actorId":1,"actorValid":false,"itemId":1,"itemValid":false,"selfSwitchCh":"A","selfSwitchValid":false,"switch1Id":1,"switch1Valid":false,"switch2Id":1,"switch2Valid":false,"variableId":1,"variableValid":false,"variableValue":0},"directionFix":false,"image":{"tileId":0,"characterName":"Animal","direction":6,"pattern":1,"characterIndex":7},"moveFrequency":5,"moveRoute":{"list":[{"code":9,"indent":null,"parameters":[]},{"code":0,"indent":null,"parameters":[]}],"repeat":true,"skippable":true,"wait":false},"moveSpeed":1,"moveType":3,"priorityType":2,"stepAnime":false,"through":false,"trigger":0,"walkAnime":true,"list":[{"code":0,"indent":0,"parameters":[]}]}],"x":26,"y":11},
{"id":15,"name":"EV015","note":"","pages":[{"conditions":{"actorId":1,"actorValid":false,"itemId":1,"itemValid":false,"selfSwitchCh":"A","selfSwitchValid":false,"switch1Id":1,"switch1Valid":false,"switch2Id":1,"switch2Valid":false,"variableId":1,"variableValid":false,"variableValue":0},"directionFix":false,"image":{"tileId":0,"characterName":"Animal","direction":6,"pattern":1,"characterIndex":7},"moveFrequency":5,"moveRoute":{"list":[{"code":9,"indent":null,"parameters":[]},{"code":0,"indent":null,"parameters":[]}],"repeat":true,"skippable":true,"wait":false},"moveSpeed":1,"moveType":3,"priorityType":2,"stepAnime":false,"through":false,"trigger":0,"walkAnime":true,"list":[{"code":0,"indent":0,"parameters":[]}]}],"x":20,"y":9},
{"id":16,"name":"EV016","note":"","pages":[{"conditions":{"actorId":1,"actorValid":false,"itemId":1,"itemValid":false,"selfSwitchCh":"A","selfSwitchValid":false,"switch1Id":1,"switch1Valid":false,"switch2Id":1,"switch2Valid":false,"variableId":1,"variableValid":false,"variableValue":0},"directionFix":false,"image":{"tileId":0,"characterName":"Animal","direction":6,"pattern":1,"characterIndex":7},"moveFrequency":5,"moveRoute":{"list":[{"code":9,"indent":null,"parameters":[]},{"code":0,"indent":null,"parameters":[]}],"repeat":true,"skippable":true,"wait":false},"moveSpeed":1,"moveType":3,"priorityType":2,"stepAnime":false,"through":false,"trigger":0,"walkAnime":true,"list":[{"code":0,"indent":0,"parameters":[]}]}],"x":13,"y":5},
{"id":17,"name":"EV017","note":"","pages":[{"conditions":{"actorId":1,"actorValid":false,"itemId":1,"itemValid":false,"selfSwitchCh":"A","selfSwitchValid":false,"switch1Id":1,"switch1Valid":false,"switch2Id":1,"switch2Valid":false,"variableId":1,"variableValid":false,"variableValue":0},"directionFix":false,"image":{"tileId":0,"characterName":"Animal","direction":6,"pattern":1,"characterIndex":7},"moveFrequency":5,"moveRoute":{"list":[{"code":9,"indent":null,"parameters":[]},{"code":0,"indent":null,"parameters":[]}],"repeat":true,"skippable":true,"wait":false},"moveSpeed":1,"moveType":3,"priorityType":2,"stepAnime":false,"through":false,"trigger":0,"walkAnime":true,"list":[{"code":0,"indent":0,"parameters":[]}]}],"x":12,"y":2},
{"id":18,"name":"EV018","note":"","pages":[{"conditions":{"actorId":1,"actorValid":false,"itemId":1,"itemValid":false,"selfSwitchCh":"A","selfSwitchValid":false,"switch1Id":1,"switch1Valid":false,"switch2Id":1,"switch2Valid":false,"variableId":1,"variableValid":false,"variableValue":0},"directionFix":false,"image":{"tileId":0,"characterName":"Animal","direction":6,"pattern":1,"characterIndex":7},"moveFrequency":5,"moveRoute":{"list":[{"code":9,"indent":null,"parameters":[]},{"code":0,"indent":null,"parameters":[]}],"repeat":true,"skippable":true,"wait":false},"moveSpeed":1,"moveType":3,"priorityType":2,"stepAnime":false,"through":false,"trigger":0,"walkAnime":true,"list":[{"code":0,"indent":0,"parameters":[]}]}],"x":9,"y":2},
{"id":19,"name":"EV019","note":"","pages":[{"conditions":{"actorId":1,"actorValid":false,"itemId":1,"itemValid":false,"selfSwitchCh":"A","selfSwitchValid":false,"switch1Id":1,"switch1Valid":false,"switch2Id":1,"switch2Valid":false,"variableId":1,"variableValid":false,"variableValue":0},"directionFix":false,"image":{"tileId":0,"characterName":"Animal","direction":6,"pattern":1,"characterIndex":7},"moveFrequency":5,"moveRoute":{"list":[{"code":9,"indent":null,"parameters":[]},{"code":0,"indent":null,"parameters":[]}],"repeat":true,"skippable":true,"wait":false},"moveSpeed":1,"moveType":3,"priorityType":2,"stepAnime":false,"through":false,"trigger":0,"walkAnime":true,"list":[{"code":0,"indent":0,"parameters":[]}]}],"x":5,"y":4},
{"id":20,"name":"EV020","note":"","pages":[{"conditions":{"actorId":1,"actorValid":false,"itemId":1,"itemValid":false,"selfSwitchCh":"A","selfSwitchValid":false,"switch1Id":1,"switch1Valid":false,"switch2Id":1,"switch2Valid":false,"variableId":1,"variableValid":false,"variableValue":0},"directionFix":false,"image":{"tileId":0,"characterName":"Animal","direction":6,"pattern":1,"characterIndex":7},"moveFrequency":5,"moveRoute":{"list":[{"code":9,"indent":null,"parameters":[]},{"code":0,"indent":null,"parameters":[]}],"repeat":true,"skippable":true,"wait":false},"moveSpeed":1,"moveType":3,"priorityType":2,"stepAnime":false,"through":false,"trigger":0,"walkAnime":true,"list":[{"code":0,"indent":0,"parameters":[]}]}],"x":5,"y":8},
{"id":21,"name":"EV021","note":"","pages":[{"conditions":{"actorId":1,"actorValid":false,"itemId":1,"itemValid":false,"selfSwitchCh":"A","selfSwitchValid":false,"switch1Id":1,"switch1Valid":false,"switch2Id":1,"switch2Valid":false,"variableId":1,"variableValid":false,"variableValue":0},"directionFix":false,"image":{"tileId":0,"characterName":"Animal","direction":6,"pattern":1,"characterIndex":7},"moveFrequency":5,"moveRoute":{"list":[{"code":9,"indent":null,"parameters":[]},{"code":0,"indent":null,"parameters":[]}],"repeat":true,"skippable":true,"wait":false},"moveSpeed":1,"moveType":3,"priorityType":2,"stepAnime":false,"through":false,"trigger":0,"walkAnime":true,"list":[{"code":0,"indent":0,"parameters":[]}]}],"x":8,"y":13},
{"id":22,"name":"EV022","note":"","pages":[{"conditions":{"actorId":1,"actorValid":false,"itemId":1,"itemValid":false,"selfSwitchCh":"A","selfSwitchValid":false,"switch1Id":1,"switch1Valid":false,"switch2Id":1,"switch2Valid":false,"variableId":1,"variableValid":false,"variableValue":0},"directionFix":false,"image":{"tileId":0,"characterName":"Animal","direction":6,"pattern":1,"characterIndex":7},"moveFrequency":5,"moveRoute":{"list":[{"code":9,"indent":null,"parameters":[]},{"code":0,"indent":null,"parameters":[]}],"repeat":true,"skippable":true,"wait":false},"moveSpeed":1,"moveType":3,"priorityType":2,"stepAnime":false,"through":false,"trigger":0,"walkAnime":true,"list":[{"code":0,"indent":0,"parameters":[]}]}],"x":12,"y":14},
{"id":23,"name":"EV023","note":"","pages":[{"conditions":{"actorId":1,"actorValid":false,"itemId":1,"itemValid":false,"selfSwitchCh":"A","selfSwitchValid":false,"switch1Id":1,"switch1Valid":false,"switch2Id":1,"switch2Valid":false,"variableId":1,"variableValid":false,"variableValue":0},"directionFix":false,"image":{"tileId":0,"characterName":"Animal","direction":6,"pattern":1,"characterIndex":7},"moveFrequency":5,"moveRoute":{"list":[{"code":9,"indent":null,"parameters":[]},{"code":0,"indent":null,"parameters":[]}],"repeat":true,"skippable":true,"wait":false},"moveSpeed":1,"moveType":3,"priorityType":2,"stepAnime":false,"through":false,"trigger":0,"walkAnime":true,"list":[{"code":0,"indent":0,"parameters":[]}]}],"x":9,"y":7},
{"id":24,"name":"EV024","note":"","pages":[{"conditions":{"actorId":1,"actorValid":false,"itemId":1,"itemValid":false,"selfSwitchCh":"A","selfSwitchValid":false,"switch1Id":1,"switch1Valid":false,"switch2Id":1,"switch2Valid":false,"variableId":1,"variableValid":false,"variableValue":0},"directionFix":false,"image":{"tileId":0,"characterName":"Animal","direction":6,"pattern":1,"characterIndex":7},"moveFrequency":5,"moveRoute":{"list":[{"code":9,"indent":null,"parameters":[]},{"code":0,"indent":null,"parameters":[]}],"repeat":true,"skippable":true,"wait":false},"moveSpeed":1,"moveType":3,"priorityType":2,"stepAnime":false,"through":false,"trigger":0,"walkAnime":true,"list":[{"code":0,"indent":0,"parameters":[]}]}],"x":11,"y":7},
{"id":25,"name":"EV025","note":"","pages":[{"conditions":{"actorId":1,"actorValid":false,"itemId":1,"itemValid":false,"selfSwitchCh":"A","selfSwitchValid":false,"switch1Id":1,"switch1Valid":false,"switch2Id":1,"switch2Valid":false,"variableId":1,"variableValid":false,"variableValue":0},"directionFix":false,"image":{"tileId":0,"characterName":"Animal","direction":6,"pattern":1,"characterIndex":7},"moveFrequency":5,"moveRoute":{"list":[{"code":9,"indent":null,"parameters":[]},{"code":0,"indent":null,"parameters":[]}],"repeat":true,"skippable":true,"wait":false},"moveSpeed":1,"moveType":3,"priorityType":2,"stepAnime":false,"through":false,"trigger":0,"walkAnime":true,"list":[{"code":0,"indent":0,"parameters":[]}]}],"x":19,"y":4},
{"id":26,"name":"EV026","note":"","pages":[{"conditions":{"actorId":1,"actorValid":false,"itemId":1,"itemValid":false,"selfSwitchCh":"A","selfSwitchValid":false,"switch1Id":1,"switch1Valid":false,"switch2Id":1,"switch2Valid":false,"variableId":1,"variableValid":false,"variableValue":0},"directionFix":false,"image":{"tileId":0,"characterName":"","direction":2,"pattern":0,"characterIndex":0},"moveFrequency":3,"moveRoute":{"list":[{"code":0,"indent":null,"parameters":[]}],"repeat":true,"skippable":false,"wait":false},"moveSpeed":3,"moveType":0,"priorityType":0,"stepAnime":false,"through":false,"trigger":2,"walkAnime":true,"list":[{"code":201,"indent":0,"parameters":[0,58,2,1,0,0]},{"code":0,"indent":0,"parameters":[]}]}],"x":15,"y":24},
{"id":27,"name":"EV027","note":"","pages":[{"conditions":{"actorId":1,"actorValid":false,"itemId":1,"itemValid":false,"selfSwitchCh":"A","selfSwitchValid":false,"switch1Id":1,"switch1Valid":false,"switch2Id":1,"switch2Valid":false,"variableId":1,"variableValid":false,"variableValue":0},"directionFix":false,"image":{"tileId":0,"characterName":"","direction":2,"pattern":0,"characterIndex":0},"moveFrequency":3,"moveRoute":{"list":[{"code":0,"indent":null,"parameters":[]}],"repeat":true,"skippable":false,"wait":false},"moveSpeed":3,"moveType":0,"priorityType":0,"stepAnime":false,"through":false,"trigger":2,"walkAnime":true,"list":[{"code":201,"indent":0,"parameters":[0,58,2,1,0,0]},{"code":0,"indent":0,"parameters":[]}]}],"x":14,"y":24},
{"id":28,"name":"EV028","note":"","pages":[{"conditions":{"actorId":1,"actorValid":false,"itemId":1,"itemValid":false,"selfSwitchCh":"A","selfSwitchValid":false,"switch1Id":1,"switch1Valid":false,"switch2Id":1,"switch2Valid":false,"variableId":1,"variableValid":false,"variableValue":0},"directionFix":false,"image":{"tileId":0,"characterName":"","direction":2,"pattern":0,"characterIndex":0},"moveFrequency":3,"moveRoute":{"list":[{"code":0,"indent":null,"parameters":[]}],"repeat":true,"skippable":false,"wait":false},"moveSpeed":3,"moveType":0,"priorityType":0,"stepAnime":false,"through":false,"trigger":2,"walkAnime":true,"list":[{"code":201,"indent":0,"parameters":[0,58,2,1,0,0]},{"code":0,"indent":0,"parameters":[]}]}],"x":16,"y":24},
{"id":29,"name":"EV029","note":"","pages":[{"conditions":{"actorId":1,"actorValid":false,"itemId":1,"itemValid":false,"selfSwitchCh":"A","selfSwitchValid":false,"switch1Id":1,"switch1Valid":false,"switch2Id":1,"switch2Valid":false,"variableId":1,"variableValid":false,"variableValue":0},"directionFix":false,"image":{"tileId":0,"characterName":"","direction":2,"pattern":0,"characterIndex":0},"moveFrequency":3,"moveRoute":{"list":[{"code":0,"indent":null,"parameters":[]}],"repeat":true,"skippable":false,"wait":false},"moveSpeed":3,"moveType":0,"priorityType":0,"stepAnime":false,"through":false,"trigger":2,"walkAnime":true,"list":[{"code":201,"indent":0,"parameters":[0,59,13,1,0,0]},{"code":0,"indent":0,"parameters":[]}]}],"x":11,"y":24}
]
}