[
null,
{"id":1,"animationId":7,"description":"Kleine Axt zum Holz hacken.","etypeId":1,"traits":[{"code":31,"dataId":1,"value":0},{"code":22,"dataId":0,"value":-0.1},{"code":33,"dataId":0,"value":-5}],"iconIndex":144,"name":"Holzfäller-Axt","note":"","params":[0,0,15,0,0,0,0,0],"price":600,"wtypeId":1},
{"id":2,"animationId":7,"description":"Double-sided axe made for combat.","etypeId":1,"traits":[{"code":31,"dataId":1,"value":0},{"code":22,"dataId":0,"value":-0.1},{"code":33,"dataId":0,"value":-5}],"iconIndex":144,"name":"Battle Axe","note":"","params":[0,0,30,0,0,0,0,0],"price":2400,"wtypeId":1},
{"id":3,"animationId":7,"description":"Three crescent blades on this axe.","etypeId":1,"traits":[{"code":31,"dataId":1,"value":0},{"code":22,"dataId":0,"value":-0.1},{"code":33,"dataId":0,"value":-5}],"iconIndex":144,"name":"Bardiche","note":"","params":[0,0,50,0,0,0,0,0],"price":4000,"wtypeId":1},
{"id":4,"animationId":7,"description":"Mithril axe made of the magic mineral.","etypeId":1,"traits":[{"code":31,"dataId":1,"value":0},{"code":22,"dataId":0,"value":-0.1}],"iconIndex":144,"name":"Mithril Axe","note":"","params":[0,0,70,0,0,0,0,0],"price":7000,"wtypeId":1},
{"id":5,"animationId":7,"description":"Crimson soaked battle axe.","etypeId":1,"traits":[{"code":31,"dataId":1,"value":0},{"code":22,"dataId":0,"value":-0.1},{"code":33,"dataId":0,"value":-5}],"iconIndex":144,"name":"Crimson Axe","note":"","params":[0,0,90,0,0,0,0,0],"price":18000,"wtypeId":1},
{"id":6,"animationId":7,"description":"Heavy axe used by giants.","etypeId":1,"traits":[{"code":31,"dataId":1,"value":0},{"code":22,"dataId":0,"value":-0.1},{"code":22,"dataId":2,"value":0.03},{"code":33,"dataId":0,"value":-5}],"iconIndex":144,"name":"Gigantes Axe","note":"","params":[0,0,120,0,0,0,0,0],"price":36000,"wtypeId":1},
{"id":7,"animationId":1,"description":"Spikes appear on the head of this glove.","etypeId":1,"traits":[{"code":31,"dataId":1,"value":0},{"code":22,"dataId":0,"value":0.04},{"code":34,"dataId":0,"value":1},{"code":54,"dataId":1,"value":0}],"iconIndex":145,"name":"Cestus","note":"","params":[0,0,15,0,0,0,0,0],"price":1200,"wtypeId":2},
{"id":8,"animationId":1,"description":"Fighting weapon with four short nails.","etypeId":1,"traits":[{"code":31,"dataId":1,"value":0},{"code":22,"dataId":0,"value":0.04},{"code":34,"dataId":0,"value":1},{"code":54,"dataId":1,"value":0}],"iconIndex":145,"name":"Bagna","note":"","params":[0,0,30,0,0,0,0,0],"price":2400,"wtypeId":2},
{"id":9,"animationId":1,"description":"Its claws are made of steel.","etypeId":1,"traits":[{"code":31,"dataId":1,"value":0},{"code":22,"dataId":0,"value":0.04},{"code":34,"dataId":0,"value":1},{"code":54,"dataId":1,"value":0}],"iconIndex":145,"name":"Iron Claw","note":"","params":[0,0,50,0,0,0,0,0],"price":4000,"wtypeId":2},
{"id":10,"animationId":1,"description":"Mithril claw made of the magic mineral.","etypeId":1,"traits":[{"code":31,"dataId":1,"value":0},{"code":22,"dataId":0,"value":0.04},{"code":34,"dataId":0,"value":1},{"code":54,"dataId":1,"value":0}],"iconIndex":145,"name":"Mithril Claw","note":"","params":[0,0,70,0,0,0,0,0],"price":7000,"wtypeId":2},
{"id":11,"animationId":1,"description":"The claw head is made of dragon fangs.","etypeId":1,"traits":[{"code":31,"dataId":1,"value":0},{"code":22,"dataId":0,"value":0.04},{"code":34,"dataId":0,"value":1},{"code":54,"dataId":1,"value":0}],"iconIndex":145,"name":"Dragon Fang","note":"","params":[0,0,90,0,0,0,0,0],"price":18000,"wtypeId":2},
{"id":12,"animationId":1,"description":"Four winds empower this claw.","etypeId":1,"traits":[{"code":31,"dataId":1,"value":0},{"code":22,"dataId":0,"value":0.04},{"code":34,"dataId":0,"value":1},{"code":54,"dataId":1,"value":0}],"iconIndex":145,"name":"Zephyrus Claw","note":"","params":[0,0,120,0,0,0,0,0],"price":36000,"wtypeId":2},
{"id":13,"animationId":13,"description":"A short spear.","etypeId":1,"traits":[{"code":31,"dataId":1,"value":0},{"code":22,"dataId":0,"value":-0.05}],"iconIndex":146,"name":"Spear","note":"","params":[0,0,15,0,0,0,-2,0],"price":1200,"wtypeId":3},
{"id":14,"animationId":13,"description":"A long spear with a long blade.","etypeId":1,"traits":[{"code":31,"dataId":1,"value":0},{"code":22,"dataId":0,"value":-0.05},{"code":33,"dataId":0,"value":-3}],"iconIndex":146,"name":"Partisan","note":"","params":[0,0,30,0,0,0,0,0],"price":2400,"wtypeId":3},
{"id":15,"animationId":13,"description":"An axe is mounted on this spear.","etypeId":1,"traits":[{"code":31,"dataId":1,"value":0},{"code":22,"dataId":0,"value":-0.05},{"code":33,"dataId":0,"value":-3}],"iconIndex":146,"name":"Halberd","note":"","params":[0,0,50,0,0,0,0,0],"price":4000,"wtypeId":3},
{"id":16,"animationId":13,"description":"Mithril spear made of the magic mineral.","etypeId":1,"traits":[{"code":31,"dataId":1,"value":0},{"code":22,"dataId":0,"value":-0.05}],"iconIndex":146,"name":"Mithril Spear","note":"","params":[0,0,70,0,0,0,0,0],"price":7000,"wtypeId":3},
{"id":17,"animationId":13,"description":"A white spirit blessed this holy spear.","etypeId":1,"traits":[{"code":31,"dataId":1,"value":0},{"code":22,"dataId":0,"value":-0.05},{"code":33,"dataId":0,"value":-3}],"iconIndex":146,"name":"Holy Lance","note":"","params":[0,0,90,0,0,5,0,0],"price":18000,"wtypeId":3},
{"id":18,"animationId":13,"description":"Contains deeply engraved shadow magic.","etypeId":1,"traits":[{"code":31,"dataId":1,"value":0},{"code":22,"dataId":0,"value":-0.05},{"code":33,"dataId":0,"value":-3}],"iconIndex":146,"name":"Gaebulg Spear","note":"","params":[0,0,120,0,0,10,0,0],"price":36000,"wtypeId":3},
{"id":19,"animationId":7,"description":"Light and easy-to-use short sword.","etypeId":1,"traits":[{"code":31,"dataId":1,"value":0},{"code":22,"dataId":0,"value":0}],"iconIndex":147,"name":"Short Sword","note":"","params":[0,0,15,0,0,0,0,0],"price":1200,"wtypeId":4},
{"id":20,"animationId":7,"description":"Ein Meisterhaft angefertigtes Langschwert.","etypeId":1,"traits":[{"code":31,"dataId":1,"value":0},{"code":22,"dataId":0,"value":0}],"iconIndex":147,"name":"Langschwert","note":"","params":[0,0,30,0,0,0,0,0],"price":2400,"wtypeId":4},
{"id":21,"animationId":7,"description":"Ein einschneidiges Sichelschwert.","etypeId":1,"traits":[{"code":31,"dataId":1,"value":0},{"code":22,"dataId":0,"value":0}],"iconIndex":395,"name":"Malchus","note":"","params":[0,0,50,0,0,0,0,0],"price":4000,"wtypeId":4},
{"id":22,"animationId":7,"description":"Mithril sword made of the magic mineral.","etypeId":1,"traits":[{"code":31,"dataId":1,"value":0},{"code":22,"dataId":0,"value":0}],"iconIndex":147,"name":"Mithril Sword","note":"","params":[0,0,70,0,0,0,0,0],"price":7000,"wtypeId":4},
{"id":23,"animationId":7,"description":"Engraved with magical runes.","etypeId":1,"traits":[{"code":31,"dataId":1,"value":0},{"code":22,"dataId":0,"value":0}],"iconIndex":147,"name":"Rune Blade","note":"","params":[0,0,90,0,10,0,0,0],"price":18000,"wtypeId":4},
{"id":24,"animationId":7,"description":"The magic sword that brings triumph over evil.","etypeId":1,"traits":[{"code":31,"dataId":1,"value":0},{"code":22,"dataId":0,"value":0}],"iconIndex":147,"name":"Tyrfing Sword","note":"","params":[0,0,120,0,20,0,0,0],"price":36000,"wtypeId":4},
{"id":25,"animationId":7,"description":"Has a slender sword inscription.","etypeId":1,"traits":[{"code":31,"dataId":1,"value":0},{"code":22,"dataId":0,"value":-0.08},{"code":54,"dataId":1,"value":0}],"iconIndex":148,"name":"Katana","note":"","params":[0,0,35,0,0,0,0,0],"price":1600,"wtypeId":5},
{"id":26,"animationId":7,"description":"Excellent sword with destructive power.","etypeId":1,"traits":[{"code":31,"dataId":1,"value":0},{"code":22,"dataId":0,"value":-0.08},{"code":54,"dataId":1,"value":0}],"iconIndex":148,"name":"Zanbatou","note":"","params":[0,0,50,0,0,0,0,0],"price":3200,"wtypeId":5},
{"id":27,"animationId":7,"description":"A short sword tempered with frost.","etypeId":1,"traits":[{"code":31,"dataId":1,"value":0},{"code":22,"dataId":0,"value":-0.08},{"code":54,"dataId":1,"value":0}],"iconIndex":148,"name":"Toratouru","note":"","params":[0,0,75,0,0,0,0,0],"price":5600,"wtypeId":5},
{"id":28,"animationId":7,"description":"Magic katana made of the magic mineral.","etypeId":1,"traits":[{"code":31,"dataId":1,"value":0},{"code":22,"dataId":0,"value":-0.08},{"code":54,"dataId":1,"value":0}],"iconIndex":148,"name":"Reigin no Tachi","note":"","params":[0,0,100,0,0,0,0,0],"price":8600,"wtypeId":5},
{"id":29,"animationId":7,"description":"An ancient sword with hidden power.","etypeId":1,"traits":[{"code":31,"dataId":1,"value":0},{"code":22,"dataId":0,"value":-0.08},{"code":54,"dataId":1,"value":0}],"iconIndex":148,"name":"Shichishitou","note":"","params":[0,0,125,0,0,0,0,0],"price":21000,"wtypeId":5},
{"id":30,"animationId":7,"description":"A demonic sword that sucks the life of the wielder.","etypeId":1,"traits":[{"code":31,"dataId":1,"value":0},{"code":22,"dataId":0,"value":-0.05},{"code":54,"dataId":1,"value":0}],"iconIndex":148,"name":"Muramasa Katana","note":"","params":[0,0,180,0,0,0,0,0],"price":50000,"wtypeId":5},
{"id":31,"animationId":13,"description":"A shortbow made for hunting.","etypeId":1,"traits":[{"code":31,"dataId":1,"value":0},{"code":22,"dataId":0,"value":0},{"code":54,"dataId":1,"value":0},{"code":22,"dataId":2,"value":0.03},{"code":33,"dataId":0,"value":5}],"iconIndex":149,"name":"Shortbow","note":"","params":[0,0,15,0,0,0,0,0],"price":1200,"wtypeId":6},
{"id":32,"animationId":13,"description":"The circular shape grants it strength.","etypeId":1,"traits":[{"code":31,"dataId":1,"value":0},{"code":22,"dataId":0,"value":0},{"code":54,"dataId":1,"value":0},{"code":22,"dataId":2,"value":0.03},{"code":33,"dataId":0,"value":5}],"iconIndex":149,"name":"Longbow","note":"","params":[0,0,30,0,0,0,0,0],"price":2400,"wtypeId":6},
{"id":33,"animationId":13,"description":"Shoots a crossbow arrow from a strong string.","etypeId":1,"traits":[{"code":31,"dataId":1,"value":0},{"code":22,"dataId":0,"value":0},{"code":54,"dataId":1,"value":0},{"code":22,"dataId":2,"value":0.03},{"code":33,"dataId":0,"value":5}],"iconIndex":149,"name":"Crossbow","note":"","params":[0,0,60,0,0,0,0,0],"price":4000,"wtypeId":6},
{"id":34,"animationId":13,"description":"Mithril bow made of the magic mineral.","etypeId":1,"traits":[{"code":31,"dataId":1,"value":0},{"code":22,"dataId":0,"value":0},{"code":54,"dataId":1,"value":0},{"code":22,"dataId":2,"value":0.03},{"code":33,"dataId":0,"value":5}],"iconIndex":149,"name":"Mithril Bow","note":"","params":[0,0,90,0,0,0,5,0],"price":7000,"wtypeId":6},
{"id":35,"animationId":13,"description":"A bow made from the earth spirits.","etypeId":1,"traits":[{"code":31,"dataId":1,"value":0},{"code":22,"dataId":0,"value":0},{"code":54,"dataId":1,"value":0},{"code":22,"dataId":2,"value":0.03},{"code":33,"dataId":0,"value":5}],"iconIndex":149,"name":"Ebon Bow","note":"","params":[0,0,120,0,0,0,10,0],"price":18000,"wtypeId":6},
{"id":36,"animationId":13,"description":"A bow that bears the name of the Moon Goddess.","etypeId":1,"traits":[{"code":31,"dataId":1,"value":0},{"code":22,"dataId":0,"value":0},{"code":54,"dataId":1,"value":0},{"code":22,"dataId":2,"value":0.03},{"code":33,"dataId":0,"value":5}],"iconIndex":149,"name":"Artemis Bow","note":"","params":[0,0,160,0,0,0,15,0],"price":36000,"wtypeId":6},
{"id":37,"animationId":7,"description":"Your run-of-the-mill knife.","etypeId":1,"traits":[{"code":31,"dataId":1,"value":0},{"code":22,"dataId":0,"value":0.04},{"code":22,"dataId":2,"value":0.03},{"code":22,"dataId":1,"value":0.03}],"iconIndex":150,"name":"Knife","note":"","params":[0,0,7,0,0,0,0,0],"price":800,"wtypeId":7},
{"id":38,"animationId":7,"description":"A dagger with a large blade made for combat.","etypeId":1,"traits":[{"code":31,"dataId":1,"value":0},{"code":22,"dataId":0,"value":0.04},{"code":22,"dataId":2,"value":0.03},{"code":22,"dataId":1,"value":0.04}],"iconIndex":150,"name":"Dagger","note":"","params":[0,0,15,0,0,0,0,0],"price":1600,"wtypeId":7},
{"id":39,"animationId":7,"description":"Knife used for fending off attacks.","etypeId":1,"traits":[{"code":31,"dataId":1,"value":0},{"code":22,"dataId":0,"value":0.04},{"code":22,"dataId":2,"value":0.03},{"code":22,"dataId":1,"value":0.05}],"iconIndex":150,"name":"Main Gauche","note":"","params":[0,0,30,0,0,0,0,0],"price":3600,"wtypeId":7},
{"id":40,"animationId":7,"description":"Mithril knife made of the magic mineral.","etypeId":1,"traits":[{"code":31,"dataId":1,"value":0},{"code":22,"dataId":0,"value":0.04},{"code":22,"dataId":2,"value":0.03},{"code":22,"dataId":1,"value":0.06}],"iconIndex":150,"name":"Mithril Knife","note":"","params":[0,0,45,0,0,0,0,0],"price":5600,"wtypeId":7},
{"id":41,"animationId":7,"description":"Used for assassinations.","etypeId":1,"traits":[{"code":31,"dataId":1,"value":0},{"code":22,"dataId":0,"value":0.04},{"code":22,"dataId":2,"value":0.07},{"code":22,"dataId":1,"value":0.07}],"iconIndex":150,"name":"Assassin's Dagger","note":"","params":[0,0,60,0,0,0,5,0],"price":12000,"wtypeId":7},
{"id":42,"animationId":7,"description":"Bears the name of an intense maelstrom.","etypeId":1,"traits":[{"code":31,"dataId":1,"value":0},{"code":22,"dataId":0,"value":0.04},{"code":22,"dataId":2,"value":0.03},{"code":22,"dataId":1,"value":0.1}],"iconIndex":150,"name":"Vortex Blade","note":"","params":[0,0,80,0,0,0,10,10],"price":28000,"wtypeId":7},
{"id":43,"animationId":19,"description":"A circular club with metal spikes.","etypeId":1,"traits":[{"code":31,"dataId":1,"value":0},{"code":22,"dataId":0,"value":0}],"iconIndex":151,"name":"Mace","note":"","params":[0,0,35,0,0,0,0,0],"price":1600,"wtypeId":8},
{"id":44,"animationId":19,"description":"An iron ball dangling from a chain.","etypeId":1,"traits":[{"code":31,"dataId":1,"value":0},{"code":22,"dataId":0,"value":0}],"iconIndex":151,"name":"Flail","note":"","params":[0,0,50,0,0,0,0,0],"price":3200,"wtypeId":8},
{"id":45,"animationId":19,"description":"A steel hammer made for battle.","etypeId":1,"traits":[{"code":31,"dataId":1,"value":0},{"code":22,"dataId":0,"value":0}],"iconIndex":151,"name":"War Hammer","note":"","params":[0,0,75,0,0,0,0,0],"price":5600,"wtypeId":8},
{"id":46,"animationId":19,"description":"Mithril mace made of the magic mineral.","etypeId":1,"traits":[{"code":31,"dataId":1,"value":0},{"code":22,"dataId":0,"value":0}],"iconIndex":151,"name":"Mithril Mace","note":"","params":[0,0,100,0,0,0,0,0],"price":8600,"wtypeId":8},
{"id":47,"animationId":19,"description":"The earth can crack from this magical hammer.","etypeId":1,"traits":[{"code":31,"dataId":1,"value":0},{"code":22,"dataId":0,"value":0}],"iconIndex":151,"name":"Ground Breaker","note":"","params":[0,0,125,0,0,0,0,0],"price":21000,"wtypeId":8},
{"id":48,"animationId":19,"description":"The \"Crusher\" is what the God of War nicknamed this.","etypeId":1,"traits":[{"code":31,"dataId":1,"value":0},{"code":22,"dataId":0,"value":0}],"iconIndex":151,"name":"Mourner Hammer ","note":"","params":[0,0,180,0,10,0,0,0],"price":50000,"wtypeId":8},
{"id":49,"animationId":19,"description":"Sturdy staff made of oak.","etypeId":1,"traits":[{"code":31,"dataId":1,"value":0},{"code":22,"dataId":0,"value":0},{"code":54,"dataId":1,"value":0}],"iconIndex":152,"name":"Wood Staff","note":"","params":[0,0,15,0,7,0,0,0],"price":1600,"wtypeId":9},
{"id":50,"animationId":19,"description":"An orb attached to this staff helps with casting magic.","etypeId":1,"traits":[{"code":31,"dataId":1,"value":0},{"code":22,"dataId":0,"value":0},{"code":54,"dataId":1,"value":0}],"iconIndex":152,"name":"Magic Staff","note":"","params":[0,0,30,0,15,0,0,0],"price":3196,"wtypeId":9},
{"id":51,"animationId":19,"description":"Silver amplifies the magic cast from this wand.","etypeId":1,"traits":[{"code":31,"dataId":1,"value":0},{"code":22,"dataId":0,"value":0},{"code":54,"dataId":1,"value":0}],"iconIndex":152,"name":"Force Wand","note":"","params":[0,0,50,0,30,0,0,0],"price":5600,"wtypeId":9},
{"id":52,"animationId":19,"description":"Mithril rod made of the magic mineral.","etypeId":1,"traits":[{"code":31,"dataId":1,"value":0},{"code":22,"dataId":0,"value":0},{"code":54,"dataId":1,"value":0}],"iconIndex":152,"name":"Mithril Rod","note":"","params":[0,0,70,0,45,5,0,0],"price":8600,"wtypeId":9},
{"id":53,"animationId":19,"description":"A cane made from an old tree of mistletoe.","etypeId":1,"traits":[{"code":31,"dataId":1,"value":0},{"code":22,"dataId":0,"value":0},{"code":54,"dataId":1,"value":0}],"iconIndex":152,"name":"Spirit Staff","note":"","params":[0,0,90,0,60,8,0,0],"price":21000,"wtypeId":9},
{"id":54,"animationId":19,"description":"A magic wand embedded with the Philosopher's Stone.","etypeId":1,"traits":[{"code":31,"dataId":1,"value":0},{"code":22,"dataId":0,"value":0},{"code":54,"dataId":1,"value":0}],"iconIndex":152,"name":"Magic Wand Azert","note":"","params":[0,0,120,0,80,10,0,0],"price":50000,"wtypeId":9},
{"id":55,"animationId":91,"description":"Antique pistol with a funky brace.","etypeId":1,"traits":[{"code":31,"dataId":1,"value":0},{"code":22,"dataId":0,"value":-0.05},{"code":54,"dataId":1,"value":0},{"code":33,"dataId":0,"value":-5}],"iconIndex":153,"name":"Flint Lock","note":"","params":[0,0,35,0,0,0,0,0],"price":1600,"wtypeId":10},
{"id":56,"animationId":91,"description":"A gun used by musketeers.","etypeId":1,"traits":[{"code":31,"dataId":1,"value":0},{"code":22,"dataId":0,"value":-0.05},{"code":54,"dataId":1,"value":0},{"code":33,"dataId":0,"value":-5}],"iconIndex":153,"name":"Musket","note":"","params":[0,0,50,0,0,0,0,0],"price":3200,"wtypeId":10},
{"id":57,"animationId":91,"description":"Used by the cavalry.","etypeId":1,"traits":[{"code":31,"dataId":1,"value":0},{"code":22,"dataId":0,"value":-0.05},{"code":54,"dataId":1,"value":0},{"code":33,"dataId":0,"value":-5}],"iconIndex":153,"name":"Dragoon","note":"","params":[0,0,75,0,0,0,0,0],"price":5600,"wtypeId":10},
{"id":58,"animationId":91,"description":"Mithril gun made of the magic mineral.","etypeId":1,"traits":[{"code":31,"dataId":1,"value":0},{"code":22,"dataId":0,"value":-0.05},{"code":54,"dataId":1,"value":0},{"code":33,"dataId":0,"value":-5}],"iconIndex":153,"name":"Mithril Gun","note":"","params":[0,0,100,0,0,0,0,0],"price":8600,"wtypeId":10},
{"id":59,"animationId":91,"description":"Revolving pistol that uses black powder.","etypeId":1,"traits":[{"code":31,"dataId":1,"value":0},{"code":22,"dataId":0,"value":-0.05},{"code":54,"dataId":1,"value":0},{"code":33,"dataId":0,"value":-5}],"iconIndex":153,"name":"Peacemaker","note":"","params":[0,0,125,0,0,0,0,0],"price":21000,"wtypeId":10},
{"id":60,"animationId":91,"description":"A magical gun that shoots bullets from nothing.","etypeId":1,"traits":[{"code":31,"dataId":1,"value":0},{"code":22,"dataId":0,"value":-0.05},{"code":54,"dataId":1,"value":0},{"code":33,"dataId":0,"value":-5}],"iconIndex":153,"name":"Etherblast Gun","note":"","params":[0,0,180,0,5,0,0,0],"price":50000,"wtypeId":10},
{"id":61,"animationId":0,"description":"","etypeId":1,"traits":[{"code":31,"dataId":1,"value":0},{"code":22,"dataId":0,"value":0}],"iconIndex":0,"name":"-----------------------","note":"","params":[0,0,0,0,0,0,0,0],"price":0,"wtypeId":0},
{"id":62,"animationId":109,"description":"Ein Geschenk von Vater Irman","etypeId":1,"traits":[{"code":31,"dataId":9,"value":0},{"code":13,"dataId":19,"value":0.1}],"iconIndex":524,"name":"Smaragt Amulett","note":"Spezial Amulett\n[Stufe 4]","params":[150,100,18,3,45,10,3,3],"price":120,"wtypeId":12},
{"id":63,"animationId":0,"description":"","etypeId":1,"traits":[{"code":31,"dataId":1,"value":0},{"code":22,"dataId":0,"value":0}],"iconIndex":0,"name":"","note":"","params":[0,0,0,0,0,0,0,0],"price":0,"wtypeId":0},
{"id":64,"animationId":0,"description":"","etypeId":1,"traits":[{"code":31,"dataId":1,"value":0},{"code":22,"dataId":0,"value":0}],"iconIndex":0,"name":"","note":"","params":[0,0,0,0,0,0,0,0],"price":0,"wtypeId":0},
{"id":65,"animationId":0,"description":"","etypeId":1,"traits":[{"code":31,"dataId":1,"value":0},{"code":22,"dataId":0,"value":0}],"iconIndex":0,"name":"","note":"","params":[0,0,0,0,0,0,0,0],"price":0,"wtypeId":0},
{"id":66,"animationId":0,"description":"","etypeId":1,"traits":[{"code":31,"dataId":1,"value":0},{"code":22,"dataId":0,"value":0}],"iconIndex":0,"name":"","note":"","params":[0,0,0,0,0,0,0,0],"price":0,"wtypeId":0},
{"id":67,"animationId":73,"description":"Im Shindo Jinja angefertigtes Amulett.","etypeId":1,"traits":[{"code":31,"dataId":8,"value":0},{"code":13,"dataId":20,"value":0.3}],"iconIndex":180,"name":"Wind-Amulett","note":"Spezial Amulett\n[Stufe 3]","params":[80,60,12,1,30,5,1,1],"price":600,"wtypeId":12},
{"id":68,"animationId":0,"description":"","etypeId":1,"traits":[{"code":31,"dataId":1,"value":0},{"code":22,"dataId":0,"value":0}],"iconIndex":0,"name":"","note":"","params":[0,0,0,0,0,0,0,0],"price":0,"wtypeId":0},
{"id":69,"animationId":0,"description":"","etypeId":1,"traits":[{"code":31,"dataId":1,"value":0},{"code":22,"dataId":0,"value":0}],"iconIndex":0,"name":"","note":"","params":[0,0,0,0,0,0,0,0],"price":0,"wtypeId":0},
{"id":70,"animationId":7,"description":"Ein mit Magischen Metallen bestücktes\nund in Magie getränktes, edles Schwert.","etypeId":1,"traits":[{"code":31,"dataId":12,"value":0},{"code":34,"dataId":0,"value":1}],"iconIndex":131,"name":"Excalibur","note":"","params":[120,120,75,6,75,24,6,6],"price":42000,"wtypeId":13},
{"id":71,"animationId":0,"description":"","etypeId":1,"traits":[{"code":31,"dataId":1,"value":0},{"code":22,"dataId":0,"value":0}],"iconIndex":0,"name":"","note":"","params":[0,0,0,0,0,0,0,0],"price":0,"wtypeId":0},
{"id":72,"animationId":0,"description":"","etypeId":1,"traits":[{"code":31,"dataId":1,"value":0},{"code":22,"dataId":0,"value":0}],"iconIndex":0,"name":"","note":"","params":[0,0,0,0,0,0,0,0],"price":0,"wtypeId":0},
{"id":73,"animationId":0,"description":"","etypeId":1,"traits":[{"code":31,"dataId":1,"value":0},{"code":22,"dataId":0,"value":0}],"iconIndex":0,"name":"","note":"","params":[0,0,0,0,0,0,0,0],"price":0,"wtypeId":0},
{"id":74,"animationId":0,"description":"","etypeId":1,"traits":[{"code":31,"dataId":1,"value":0},{"code":22,"dataId":0,"value":0}],"iconIndex":0,"name":"","note":"","params":[0,0,0,0,0,0,0,0],"price":0,"wtypeId":0},
{"id":75,"animationId":0,"description":"","etypeId":1,"traits":[{"code":31,"dataId":1,"value":0},{"code":22,"dataId":0,"value":0}],"iconIndex":0,"name":"","note":"","params":[0,0,0,0,0,0,0,0],"price":0,"wtypeId":0},
{"id":76,"animationId":0,"description":"","etypeId":1,"traits":[{"code":31,"dataId":1,"value":0},{"code":22,"dataId":0,"value":0}],"iconIndex":0,"name":"","note":"","params":[0,0,0,0,0,0,0,0],"price":0,"wtypeId":0},
{"id":77,"animationId":0,"description":"","etypeId":1,"traits":[{"code":31,"dataId":1,"value":0},{"code":22,"dataId":0,"value":0}],"iconIndex":0,"name":"","note":"","params":[0,0,0,0,0,0,0,0],"price":0,"wtypeId":0},
{"id":78,"animationId":0,"description":"","etypeId":1,"traits":[{"code":31,"dataId":1,"value":0},{"code":22,"dataId":0,"value":0}],"iconIndex":0,"name":"","note":"","params":[0,0,0,0,0,0,0,0],"price":0,"wtypeId":0},
{"id":79,"animationId":0,"description":"","etypeId":1,"traits":[{"code":31,"dataId":1,"value":0},{"code":22,"dataId":0,"value":0}],"iconIndex":0,"name":"","note":"","params":[0,0,0,0,0,0,0,0],"price":0,"wtypeId":0},
{"id":80,"animationId":0,"description":"","etypeId":1,"traits":[{"code":31,"dataId":1,"value":0},{"code":22,"dataId":0,"value":0}],"iconIndex":0,"name":"","note":"","params":[0,0,0,0,0,0,0,0],"price":0,"wtypeId":0},
{"id":81,"animationId":0,"description":"","etypeId":1,"traits":[{"code":31,"dataId":1,"value":0},{"code":22,"dataId":0,"value":0}],"iconIndex":0,"name":"","note":"","params":[0,0,0,0,0,0,0,0],"price":0,"wtypeId":0},
{"id":82,"animationId":122,"description":"Magische Handschuhe, die die\nGeschwindigkeit anheben.","etypeId":1,"traits":[{"code":31,"dataId":1,"value":0},{"code":22,"dataId":0,"value":0},{"code":61,"dataId":0,"value":3},{"code":43,"dataId":166,"value":0},{"code":32,"dataId":8,"value":0.25},{"code":34,"dataId":0,"value":2}],"iconIndex":11,"name":"Beschleuniger","note":"","params":[36,52,125,2,25,32,42,36],"price":32000,"wtypeId":14},
{"id":83,"animationId":0,"description":"","etypeId":1,"traits":[{"code":31,"dataId":1,"value":0},{"code":22,"dataId":0,"value":0}],"iconIndex":0,"name":"","note":"","params":[0,0,0,0,0,0,0,0],"price":0,"wtypeId":0},
{"id":84,"animationId":0,"description":"","etypeId":1,"traits":[{"code":31,"dataId":1,"value":0},{"code":22,"dataId":0,"value":0}],"iconIndex":0,"name":"","note":"","params":[0,0,0,0,0,0,0,0],"price":0,"wtypeId":0},
{"id":85,"animationId":0,"description":"","etypeId":1,"traits":[{"code":31,"dataId":1,"value":0},{"code":22,"dataId":0,"value":0}],"iconIndex":0,"name":"","note":"","params":[0,0,0,0,0,0,0,0],"price":0,"wtypeId":0},
{"id":86,"animationId":0,"description":"","etypeId":1,"traits":[{"code":31,"dataId":1,"value":0},{"code":22,"dataId":0,"value":0}],"iconIndex":0,"name":"","note":"","params":[0,0,0,0,0,0,0,0],"price":0,"wtypeId":0},
{"id":87,"animationId":0,"description":"","etypeId":1,"traits":[{"code":31,"dataId":1,"value":0},{"code":22,"dataId":0,"value":0}],"iconIndex":0,"name":"","note":"","params":[0,0,0,0,0,0,0,0],"price":0,"wtypeId":0},
{"id":88,"animationId":0,"description":"","etypeId":1,"traits":[{"code":31,"dataId":1,"value":0},{"code":22,"dataId":0,"value":0}],"iconIndex":0,"name":"","note":"","params":[0,0,0,0,0,0,0,0],"price":0,"wtypeId":0},
{"id":89,"animationId":0,"description":"","etypeId":1,"traits":[{"code":31,"dataId":1,"value":0},{"code":22,"dataId":0,"value":0}],"iconIndex":0,"name":"","note":"","params":[0,0,0,0,0,0,0,0],"price":0,"wtypeId":0},
{"id":90,"animationId":0,"description":"","etypeId":1,"traits":[{"code":31,"dataId":1,"value":0},{"code":22,"dataId":0,"value":0}],"iconIndex":0,"name":"","note":"","params":[0,0,0,0,0,0,0,0],"price":0,"wtypeId":0},
{"id":91,"animationId":0,"description":"","etypeId":1,"traits":[{"code":31,"dataId":1,"value":0},{"code":22,"dataId":0,"value":0}],"iconIndex":0,"name":"","note":"","params":[0,0,0,0,0,0,0,0],"price":0,"wtypeId":0},
{"id":92,"animationId":0,"description":"","etypeId":1,"traits":[{"code":31,"dataId":1,"value":0},{"code":22,"dataId":0,"value":0}],"iconIndex":0,"name":"","note":"","params":[0,0,0,0,0,0,0,0],"price":0,"wtypeId":0},
{"id":93,"animationId":0,"description":"","etypeId":1,"traits":[{"code":31,"dataId":1,"value":0},{"code":22,"dataId":0,"value":0}],"iconIndex":0,"name":"","note":"","params":[0,0,0,0,0,0,0,0],"price":0,"wtypeId":0},
{"id":94,"animationId":0,"description":"","etypeId":1,"traits":[{"code":31,"dataId":1,"value":0},{"code":22,"dataId":0,"value":0}],"iconIndex":0,"name":"","note":"","params":[0,0,0,0,0,0,0,0],"price":0,"wtypeId":0},
{"id":95,"animationId":0,"description":"","etypeId":1,"traits":[{"code":31,"dataId":1,"value":0},{"code":22,"dataId":0,"value":0}],"iconIndex":0,"name":"","note":"","params":[0,0,0,0,0,0,0,0],"price":0,"wtypeId":0},
{"id":96,"animationId":0,"description":"","etypeId":1,"traits":[{"code":31,"dataId":1,"value":0},{"code":22,"dataId":0,"value":0}],"iconIndex":0,"name":"","note":"","params":[0,0,0,0,0,0,0,0],"price":0,"wtypeId":0},
{"id":97,"animationId":0,"description":"","etypeId":1,"traits":[{"code":31,"dataId":1,"value":0},{"code":22,"dataId":0,"value":0}],"iconIndex":0,"name":"","note":"","params":[0,0,0,0,0,0,0,0],"price":0,"wtypeId":0},
{"id":98,"animationId":0,"description":"","etypeId":1,"traits":[{"code":31,"dataId":1,"value":0},{"code":22,"dataId":0,"value":0}],"iconIndex":0,"name":"","note":"","params":[0,0,0,0,0,0,0,0],"price":0,"wtypeId":0},
{"id":99,"animationId":0,"description":"","etypeId":1,"traits":[{"code":31,"dataId":1,"value":0},{"code":22,"dataId":0,"value":0}],"iconIndex":0,"name":"","note":"","params":[0,0,0,0,0,0,0,0],"price":0,"wtypeId":0},
{"id":100,"animationId":0,"description":"","etypeId":1,"traits":[{"code":31,"dataId":1,"value":0},{"code":22,"dataId":0,"value":0}],"iconIndex":0,"name":"","note":"","params":[0,0,0,0,0,0,0,0],"price":0,"wtypeId":0},
{"id":101,"animationId":0,"description":"","etypeId":1,"traits":[{"code":31,"dataId":1,"value":0},{"code":22,"dataId":0,"value":0}],"iconIndex":0,"name":"","note":"","params":[0,0,0,0,0,0,0,0],"price":0,"wtypeId":0},
{"id":102,"animationId":0,"description":"","etypeId":1,"traits":[{"code":31,"dataId":1,"value":0},{"code":22,"dataId":0,"value":0}],"iconIndex":0,"name":"","note":"","params":[0,0,0,0,0,0,0,0],"price":0,"wtypeId":0},
{"id":103,"animationId":0,"description":"","etypeId":1,"traits":[{"code":31,"dataId":1,"value":0},{"code":22,"dataId":0,"value":0}],"iconIndex":0,"name":"","note":"","params":[0,0,0,0,0,0,0,0],"price":0,"wtypeId":0},
{"id":104,"animationId":0,"description":"","etypeId":1,"traits":[{"code":31,"dataId":1,"value":0},{"code":22,"dataId":0,"value":0}],"iconIndex":0,"name":"","note":"","params":[0,0,0,0,0,0,0,0],"price":0,"wtypeId":0},
{"id":105,"animationId":0,"description":"","etypeId":1,"traits":[{"code":31,"dataId":1,"value":0},{"code":22,"dataId":0,"value":0}],"iconIndex":0,"name":"","note":"","params":[0,0,0,0,0,0,0,0],"price":0,"wtypeId":0},
{"id":106,"animationId":0,"description":"","etypeId":1,"traits":[{"code":31,"dataId":1,"value":0},{"code":22,"dataId":0,"value":0}],"iconIndex":0,"name":"","note":"","params":[0,0,0,0,0,0,0,0],"price":0,"wtypeId":0},
{"id":107,"animationId":0,"description":"","etypeId":1,"traits":[{"code":31,"dataId":1,"value":0},{"code":22,"dataId":0,"value":0}],"iconIndex":0,"name":"","note":"","params":[0,0,0,0,0,0,0,0],"price":0,"wtypeId":0},
{"id":108,"animationId":0,"description":"","etypeId":1,"traits":[{"code":31,"dataId":1,"value":0},{"code":22,"dataId":0,"value":0}],"iconIndex":0,"name":"","note":"","params":[0,0,0,0,0,0,0,0],"price":0,"wtypeId":0},
{"id":109,"animationId":0,"description":"","etypeId":1,"traits":[{"code":31,"dataId":1,"value":0},{"code":22,"dataId":0,"value":0}],"iconIndex":0,"name":"","note":"","params":[0,0,0,0,0,0,0,0],"price":0,"wtypeId":0},
{"id":110,"animationId":0,"description":"","etypeId":1,"traits":[{"code":31,"dataId":1,"value":0},{"code":22,"dataId":0,"value":0}],"iconIndex":0,"name":"","note":"","params":[0,0,0,0,0,0,0,0],"price":0,"wtypeId":0},
{"id":111,"animationId":0,"description":"","etypeId":1,"traits":[{"code":31,"dataId":1,"value":0},{"code":22,"dataId":0,"value":0}],"iconIndex":0,"name":"","note":"","params":[0,0,0,0,0,0,0,0],"price":0,"wtypeId":0},
{"id":112,"animationId":0,"description":"","etypeId":1,"traits":[{"code":31,"dataId":1,"value":0},{"code":22,"dataId":0,"value":0}],"iconIndex":0,"name":"","note":"","params":[0,0,0,0,0,0,0,0],"price":0,"wtypeId":0},
{"id":113,"animationId":0,"description":"","etypeId":1,"traits":[{"code":31,"dataId":1,"value":0},{"code":22,"dataId":0,"value":0}],"iconIndex":0,"name":"","note":"","params":[0,0,0,0,0,0,0,0],"price":0,"wtypeId":0},
{"id":114,"animationId":0,"description":"","etypeId":1,"traits":[{"code":31,"dataId":1,"value":0},{"code":22,"dataId":0,"value":0}],"iconIndex":0,"name":"","note":"","params":[0,0,0,0,0,0,0,0],"price":0,"wtypeId":0},
{"id":115,"animationId":0,"description":"","etypeId":1,"traits":[{"code":31,"dataId":1,"value":0},{"code":22,"dataId":0,"value":0}],"iconIndex":0,"name":"","note":"","params":[0,0,0,0,0,0,0,0],"price":0,"wtypeId":0},
{"id":116,"animationId":0,"description":"","etypeId":1,"traits":[{"code":31,"dataId":1,"value":0},{"code":22,"dataId":0,"value":0}],"iconIndex":0,"name":"","note":"","params":[0,0,0,0,0,0,0,0],"price":0,"wtypeId":0},
{"id":117,"animationId":0,"description":"","etypeId":1,"traits":[{"code":31,"dataId":1,"value":0},{"code":22,"dataId":0,"value":0}],"iconIndex":0,"name":"","note":"","params":[0,0,0,0,0,0,0,0],"price":0,"wtypeId":0},
{"id":118,"animationId":0,"description":"","etypeId":1,"traits":[{"code":31,"dataId":1,"value":0},{"code":22,"dataId":0,"value":0}],"iconIndex":0,"name":"","note":"","params":[0,0,0,0,0,0,0,0],"price":0,"wtypeId":0},
{"id":119,"animationId":0,"description":"","etypeId":1,"traits":[{"code":31,"dataId":1,"value":0},{"code":22,"dataId":0,"value":0}],"iconIndex":0,"name":"","note":"","params":[0,0,0,0,0,0,0,0],"price":0,"wtypeId":0},
{"id":120,"animationId":0,"description":"","etypeId":1,"traits":[{"code":31,"dataId":1,"value":0},{"code":22,"dataId":0,"value":0}],"iconIndex":0,"name":"","note":"","params":[0,0,0,0,0,0,0,0],"price":0,"wtypeId":0},
{"id":121,"animationId":0,"description":"","etypeId":1,"traits":[{"code":31,"dataId":1,"value":0},{"code":22,"dataId":0,"value":0}],"iconIndex":0,"name":"","note":"","params":[0,0,0,0,0,0,0,0],"price":0,"wtypeId":0},
{"id":122,"animationId":0,"description":"","etypeId":1,"traits":[{"code":31,"dataId":1,"value":0},{"code":22,"dataId":0,"value":0}],"iconIndex":0,"name":"","note":"","params":[0,0,0,0,0,0,0,0],"price":0,"wtypeId":0},
{"id":123,"animationId":0,"description":"","etypeId":1,"traits":[{"code":31,"dataId":1,"value":0},{"code":22,"dataId":0,"value":0}],"iconIndex":0,"name":"","note":"","params":[0,0,0,0,0,0,0,0],"price":0,"wtypeId":0},
{"id":124,"animationId":0,"description":"","etypeId":1,"traits":[{"code":31,"dataId":1,"value":0},{"code":22,"dataId":0,"value":0}],"iconIndex":0,"name":"","note":"","params":[0,0,0,0,0,0,0,0],"price":0,"wtypeId":0},
{"id":125,"animationId":0,"description":"","etypeId":1,"traits":[{"code":31,"dataId":1,"value":0},{"code":22,"dataId":0,"value":0}],"iconIndex":0,"name":"","note":"","params":[0,0,0,0,0,0,0,0],"price":0,"wtypeId":0},
{"id":126,"animationId":0,"description":"","etypeId":1,"traits":[{"code":31,"dataId":1,"value":0},{"code":22,"dataId":0,"value":0}],"iconIndex":0,"name":"","note":"","params":[0,0,0,0,0,0,0,0],"price":0,"wtypeId":0},
{"id":127,"animationId":0,"description":"","etypeId":1,"traits":[{"code":31,"dataId":1,"value":0},{"code":22,"dataId":0,"value":0}],"iconIndex":0,"name":"","note":"","params":[0,0,0,0,0,0,0,0],"price":0,"wtypeId":0},
{"id":128,"animationId":0,"description":"","etypeId":1,"traits":[{"code":31,"dataId":1,"value":0},{"code":22,"dataId":0,"value":0}],"iconIndex":0,"name":"","note":"","params":[0,0,0,0,0,0,0,0],"price":0,"wtypeId":0}
]